🌈一希TV,#genre#
CCTV1综合,http://150.158.112.123/%E5%85%AC%E4%BC%97%E5%8F%B7~%E7%8E%89%E7%8E%89%E8%BD%AF%E4%BB%B6%E5%BA%93/mg.php?id=cctv1
CCTV1综合,http://150.138.8.143/00/SNM/CHANNEL00000311/index.m3u8
CCTV1综合,http://ottrrs.hl.chinamobile.com/PLTV/88888888/224/3221226016/index.m3u8
CCTV1综合,http://ottrrs.hl.chinamobile.com/PLTV/88888888/224/3221226419/index.m3u8
CCTV2财经,http://150.158.112.123/%E5%85%AC%E4%BC%97%E5%8F%B7~%E7%8E%89%E7%8E%89%E8%BD%AF%E4%BB%B6%E5%BA%93/mg.php?id=cctv2
CCTV2财经,http://150.138.8.143/00/SNM/CHANNEL00000317/index.m3u8
CCTV2财经,http://ottrrs.hl.chinamobile.com/PLTV/88888888/224/3221225588/index.m3u8
CCTV3综艺,http://150.158.112.123/%E5%85%AC%E4%BC%97%E5%8F%B7~%E7%8E%89%E7%8E%89%E8%BD%AF%E4%BB%B6%E5%BA%93/mg.php?id=cctv3
CCTV3综艺,http://150.138.8.143/00/SNM/CHANNEL00000359/index.m3u8
CCTV3综艺,http://ottrrs.hl.chinamobile.com/PLTV/88888888/224/3221226021/index.m3u8
CCTV4中文国际,http://150.158.112.123/%E5%85%AC%E4%BC%97%E5%8F%B7~%E7%8E%89%E7%8E%89%E8%BD%AF%E4%BB%B6%E5%BA%93/mg.php?id=cctv4
CCTV4中文国际,http://150.138.8.143/00/SNM/CHANNEL00000320/index.m3u8
CCTV4中文国际,http://ottrrs.hl.chinamobile.com/PLTV/88888888/224/3221226428/index.m3u8
CCTV5体育,http://150.158.112.123/%E5%85%AC%E4%BC%97%E5%8F%B7~%E7%8E%89%E7%8E%89%E8%BD%AF%E4%BB%B6%E5%BA%93/mg.php?id=cctv5
CCTV5体育,http://[2409:8087:5e00:24::1e]:6060/200000001898/460000089800010145/1.m3u8
CCTV5体育,http://[2409:8087:5e00:24::1e]:6060/000000001000/1000000001000004794/1.m3u8
CCTV5体育,http://[2409:8087:1a01:df::4077]:80/ottrrs.hl.chinamobile.com/PLTV/88888888/224/3221226019/index.m3u8
CCTV5体育,http://ottrrs.hl.chinamobile.com/PLTV/88888888/224/3221226019/index.m3u8
CCTV5+体育赛事,http://150.158.112.123/%E5%85%AC%E4%BC%97%E5%8F%B7~%E7%8E%89%E7%8E%89%E8%BD%AF%E4%BB%B6%E5%BA%93/mg.php?id=cctv5p
CCTV5+体育赛事,http://150.138.8.143/00/SNM/CHANNEL00000316/index.m3u8
CCTV5+体育赛事,http://[2409:8087:5e00:24::1e]:6060/000000001000/1000000001000020505/1.m3u8
CCTV5+体育赛事,http://ottrrs.hl.chinamobile.com/PLTV/88888888/224/3221225603/index.m3u8
CCTV6电影,http://150.158.112.123/%E5%85%AC%E4%BC%97%E5%8F%B7~%E7%8E%89%E7%8E%89%E8%BD%AF%E4%BB%B6%E5%BA%93/mg.php?id=cctv6
CCTV6电影,http://150.138.8.143/00/SNM/CHANNEL00000006/index.m3u8
CCTV6电影,http://150.138.8.143/00/SNM/CHANNEL00000361/index.m3u8
CCTV6电影,http://ottrrs.hl.chinamobile.com/PLTV/88888888/224/3221226010/index.m3u8
CCTV7国防军事,http://150.158.112.123/%E5%85%AC%E4%BC%97%E5%8F%B7~%E7%8E%89%E7%8E%89%E8%BD%AF%E4%BB%B6%E5%BA%93/mg.php?id=cctv7
CCTV7国防军事,http://150.138.8.143/00/SNM/CHANNEL00000318/index.m3u8
CCTV7国防军事,http://ottrrs.hl.chinamobile.com/PLTV/88888888/224/3221225733/index.m3u8
CCTV8电视剧,http://150.158.112.123/%E5%85%AC%E4%BC%97%E5%8F%B7~%E7%8E%89%E7%8E%89%E8%BD%AF%E4%BB%B6%E5%BA%93/mg.php?id=cctv8
CCTV8电视剧,http://150.138.8.143/00/SNM/CHANNEL00000008/index.m3u8
CCTV8电视剧,http://150.138.8.143/00/SNM/CHANNEL00000362/index.m3u8
CCTV8电视剧,http://ottrrs.hl.chinamobile.com/PLTV/88888888/224/3221226008/index.m3u8
CCTV9纪录,http://150.158.112.123/%E5%85%AC%E4%BC%97%E5%8F%B7~%E7%8E%89%E7%8E%89%E8%BD%AF%E4%BB%B6%E5%BA%93/mg.php?id=cctv9
CCTV9纪录,http://150.138.8.143/00/SNM/CHANNEL00000319/index.m3u8
CCTV9纪录,http://ottrrs.hl.chinamobile.com/PLTV/88888888/224/3221225734/index.m3u8
CCTV10科教,http://150.158.112.123/%E5%85%AC%E4%BC%97%E5%8F%B7~%E7%8E%89%E7%8E%89%E8%BD%AF%E4%BB%B6%E5%BA%93/mg.php?id=cctv10
CCTV10科教,http://150.138.8.143/00/SNM/CHANNEL00000321/index.m3u8
CCTV10科教,http://ottrrs.hl.chinamobile.com/PLTV/88888888/224/3221225730/index.m3u8
CCTV11戏曲,http://150.158.112.123/%E5%85%AC%E4%BC%97%E5%8F%B7~%E7%8E%89%E7%8E%89%E8%BD%AF%E4%BB%B6%E5%BA%93/mg.php?id=cctv11
CCTV11戏曲,http://150.138.8.143/00/SNM/CHANNEL00000344/index.m3u8
CCTV12社会与法,http://150.158.112.123/%E5%85%AC%E4%BC%97%E5%8F%B7~%E7%8E%89%E7%8E%89%E8%BD%AF%E4%BB%B6%E5%BA%93/mg.php?id=cctv12
CCTV12社会与法,http://150.138.8.143/00/SNM/CHANNEL00000322/index.m3u8
CCTV12社会与法,http://ottrrs.hl.chinamobile.com/PLTV/88888888/224/3221225731/index.m3u8
CCTV13新闻,http://150.158.112.123/%E5%85%AC%E4%BC%97%E5%8F%B7~%E7%8E%89%E7%8E%89%E8%BD%AF%E4%BB%B6%E5%BA%93/mg.php?id=cctv13
CCTV13新闻,http://150.138.8.143/00/SNM/CHANNEL00000345/index.m3u8
CCTV13新闻,http://ottrrs.hl.chinamobile.com/PLTV/88888888/224/3221226011/index.m3u8
CCTV13新闻,http://ottrrs.hl.chinamobile.com/PLTV/88888888/224/3221226537/index.m3u8
CCTV14少儿,http://150.158.112.123/%E5%85%AC%E4%BC%97%E5%8F%B7~%E7%8E%89%E7%8E%89%E8%BD%AF%E4%BB%B6%E5%BA%93/mg.php?id=cctv14
CCTV14少儿,http://150.138.8.143/00/SNM/CHANNEL00000323/index.m3u8
CCTV14少儿,http://ottrrs.hl.chinamobile.com/PLTV/88888888/224/3221225732/index.m3u8
CCTV15音乐,http://150.158.112.123/%E5%85%AC%E4%BC%97%E5%8F%B7~%E7%8E%89%E7%8E%89%E8%BD%AF%E4%BB%B6%E5%BA%93/mg.php?id=cctv15
CCTV15音乐,http://150.138.8.143/00/SNM/CHANNEL00000346/index.m3u8
CCTV15音乐,http://ottrrs.hl.chinamobile.com/PLTV/88888888/224/3221225601/index.m3u8
CCTV16奥林匹克,http://[2409:8087:5e00:24::1e]:6060/200000001898/460000089800010142/1.m3u8
CCTV16奥林匹克,http://150.138.8.143/00/SNM/CHANNEL00000364/index.m3u8
CCTV16奥林匹克,http://ottrrs.hl.chinamobile.com/PLTV/88888888/224/3221226100/index.m3u8
CCTV17农业农村,http://[2409:8087:5e00:24::1e]:6060/200000001898/460000089800010210/1.m3u8
CCTV17农业农村,http://150.138.8.143/00/SNM/CHANNEL00000303/index.m3u8
CCTV17农业农村,http://ottrrs.hl.chinamobile.com/PLTV/88888888/224/3221225765/index.m3u8

CCTV-4K超高清,http://liveop.cctv.cn/hls/4KHD/playlist.m3u8
CGTN英语,https://0472.org/hls/cgtn.m3u8
CGTN英语,http://live.cgtn.com/1000/prog_index.m3u8
CGTN英语,http://live.cgtn.com/500/prog_index.m3u8
CGTN记录片,https://0472.org/hls/cgtnd.m3u8
CGTN俄语,https://0472.org/hls/cgtne.m3u8
CGTN法语,https://0472.org/hls/cgtnf.m3u8
CGTN西语,https://0472.org/hls/cgtnx.m3u8
CGTN阿语,https://0472.org/hls/cgtna.m3u8
CGTN俄罗斯语,http://liveru.cgtn.com/1000r/prog_index.m3u8
CGTN西班牙语,http://livees.cgtn.com/1000e/prog_index.m3u8
CCTV移动,http://newcntv.qcloudcdn.com/asp/hls/1200/0303000a/3/default/649e19038fa74514ab3f00febbcd6de0/1200.m3u8

卫视频道,#genre#
北京卫视,http://[2409:8087:1a01:df::4077]/ottrrs.hl.chinamobile.com/PLTV/88888888/224/3221226450/index.m3u8
东方卫视,http://[2409:8087:1a01:df::4077]/ottrrs.hl.chinamobile.com/PLTV/88888888/224/3221226345/index.m3u8
浙江卫视,http://[2409:8087:1a01:df::4077]/ottrrs.hl.chinamobile.com/PLTV/88888888/224/3221226339/index.m3u8
江苏卫视,http://[2409:8087:1a01:df::4077]/ottrrs.hl.chinamobile.com/PLTV/88888888/224/3221226310/index.m3u8
江西卫视,http://[2409:8087:1a01:df::4077]/ottrrs.hl.chinamobile.com/PLTV/88888888/224/3221226344/index.m3u8
河南卫视,http://[2409:8087:1a01:df::4077]/ottrrs.hl.chinamobile.com/PLTV/88888888/224/3221226480/index.m3u8
深圳卫视,http://[2409:8087:1a01:df::4077]/ottrrs.hl.chinamobile.com/PLTV/88888888/224/3221226313/index.m3u8
四川卫视,http://[2409:8087:1a01:df::4077]/ottrrs.hl.chinamobile.com/PLTV/88888888/224/3221226338/index.m3u8
天津卫视,http://[2409:8087:1a01:df::4077]/ottrrs.hl.chinamobile.com/PLTV/88888888/224/3221226459/index.m3u8
安徽卫视,http://[2409:8087:1a01:df::4077]/ottrrs.hl.chinamobile.com/PLTV/88888888/224/3221226391/index.m3u8
广东卫视,http://[2409:8087:1a01:df::4077]/ottrrs.hl.chinamobile.com/PLTV/88888888/224/3221226248/index.m3u8
贵州卫视,http://[2409:8087:1a01:df::4077]/ottrrs.hl.chinamobile.com/PLTV/88888888/224/3221226474/index.m3u8
重庆卫视,http://[2409:8087:1a01:df::4077]/ottrrs.hl.chinamobile.com/PLTV/88888888/224/3221226409/index.m3u8
东南卫视,http://[2409:8087:1a01:df::4077]/ottrrs.hl.chinamobile.com/PLTV/88888888/224/3221226341/index.m3u8
黑龙江卫视,http://[2409:8087:1a01:df::4077]/ottrrs.hl.chinamobile.com/PLTV/88888888/224/3221226327/index.m3u8
青海卫视,http://stream.qhbtv.com/qhws/sd/live.m3u8
延边卫视,http://live.ybtvyun.com/video/s10006-44f040627ca1/index.m3u8
延边卫视,http://live.ybtvyun.com/video/s10006-28bc40431485/index.m3u8
三沙卫视,https://pullsstv90080111.ssws.tv/live/SSTV20220729.m3u8
安多卫视,http://stream.qhbtv.com/adws/sd/live.m3u8
青海卫视,http://stream.qhbtv.com/qhws/sd/live.m3u8?_upt=f35a89681647856030
青海卫视,http://stream.qhbtv.com/qhws/sd/live.m3u8?_upt=63cf437e1591689484
延边卫视,http://live.ybtvyun.com/video/s10016-7e5f23de35df/index.m3u8
浙江卫视,http://ali-m-l.cztv.com/channels/lantian/channel01/1080p.m3u8
青海卫视,http://stream.qhbtv.com/qhws/sd/live.m3u8?_upt=1da074361609506578
延边卫视,http://live.ybtvyun.com/video/s10016-6f0dfd97912f/index.m3u8
延边卫视,http://live.ybtvyun.com/video/s10006-90fe76c52091/index.m3u8
超级体育,http://[2409:8087:1a01:df::7005]:80/ottrrs.hl.chinamobile.com/PLTV/88888888/224/3221225715/index.m3u8
超级电影,http://[2409:8087:1a01:df::7005]:80/ottrrs.hl.chinamobile.com/PLTV/88888888/224/3221225717/index.m3u8
超级电视剧,http://[2409:8087:1a01:df::7005]:80/ottrrs.hl.chinamobile.com/PLTV/88888888/224/3221225716/index.m3u8
东北热剧,http://[2409:8087:1a01:df::7005]:80/ottrrs.hl.chinamobile.com/PLTV/88888888/224/3221225741/index.m3u8
欢乐剧场,http://[2409:8087:1a01:df::7005]:80/ottrrs.hl.chinamobile.com/PLTV/88888888/224/3221225742/index.m3u8
凤凰中文,http://116.162.6.192/1.v.smtcdns.net/qctv.fengshows.cn/live/0701pcc72.m3u8
凤凰资讯,http://116.162.6.192/1.v.smtcdns.net/qctv.fengshows.cn/live/0701pin72.m3u8
凤凰香港,http://116.162.6.192/1.v.smtcdns.net/qctv.fengshows.cn/live/0701phk72.m3u8
北京卫视,http://[2409:8087:1a01:df::7005]:80/ottrrs.hl.chinamobile.com/PLTV/88888888/224/3221226450/index.m3u8
湖南卫视,http://[2409:8087:1a01:df::7005]:80/ottrrs.hl.chinamobile.com/PLTV/88888888/224/3221226307/index.m3u8
东方卫视,http://[2409:8087:1a01:df::7005]:80/ottrrs.hl.chinamobile.com/PLTV/88888888/224/3221226345/index.m3u8
四川卫视,http://[2409:8087:1a01:df::7005]:80/ottrrs.hl.chinamobile.com/PLTV/88888888/224/3221226338/index.m3u8
天津卫视,http://[2409:8087:1a01:df::7005]:80/ottrrs.hl.chinamobile.com/PLTV/88888888/224/3221226459/index.m3u8
安徽卫视,http://[2409:8087:1a01:df::7005]:80/ottrrs.hl.chinamobile.com/PLTV/88888888/224/3221226391/index.m3u8
山东卫视,http://[2409:8087:1a01:df::7005]:80/ottrrs.hl.chinamobile.com/PLTV/88888888/224/3221226456/index.m3u8
深圳卫视,http://[2409:8087:1a01:df::7005]:80/ottrrs.hl.chinamobile.com/PLTV/88888888/224/3221226313/index.m3u8
广东卫视,http://[2409:8087:1a01:df::7005]:80/ottrrs.hl.chinamobile.com/PLTV/88888888/224/3221226248/index.m3u8
广西卫视,http://[2409:8087:1a01:df::7005]:80/ottrrs.hl.chinamobile.com/PLTV/88888888/224/3221226549/index.m3u8
江苏卫视,http://[2409:8087:1a01:df::7005]:80/ottrrs.hl.chinamobile.com/PLTV/88888888/224/3221226310/index.m3u8
河北卫视,http://[2409:8087:1a01:df::7005]:80/ottrrs.hl.chinamobile.com/PLTV/88888888/224/3221226406/index.m3u8
浙江卫视,http://[2409:8087:1a01:df::7005]:80/ottrrs.hl.chinamobile.com/PLTV/88888888/224/3221226339/index.m3u8
海南卫视,http://[2409:8087:1a01:df::7005]:80/ottrrs.hl.chinamobile.com/PLTV/88888888/224/3221226465/index.m3u8
湖北卫视,http://[2409:8087:1a01:df::7005]:80/ottrrs.hl.chinamobile.com/PLTV/88888888/224/3221226477/index.m3u8
山西卫视,http://[2409:8087:5e00:24::1e]:6060/000000001000/1000000002000021220/1.m3u8
东南卫视,http://[2409:8087:1a01:df::7005]:80/ottrrs.hl.chinamobile.com/PLTV/88888888/224/3221226341/index.m3u8
贵州卫视,http://[2409:8087:1a01:df::7005]:80/ottrrs.hl.chinamobile.com/PLTV/88888888/224/3221226474/index.m3u8
辽宁卫视,http://[2409:8087:1a01:df::7005]:80/ottrrs.hl.chinamobile.com/PLTV/88888888/224/3221226546/index.m3u8
重庆卫视,http://[2409:8087:1a01:df::7005]:80/ottrrs.hl.chinamobile.com/PLTV/88888888/224/3221226409/index.m3u8
黑龙江卫视,http://[2409:8087:1a01:df::7005]:80/ottrrs.hl.chinamobile.com/PLTV/88888888/224/3221226327/index.m3u8
内蒙古卫视,https://livestream-bt.nmtv.cn/nmtv/2314general.m3u8?txSecret=dc348a27bd36fe1bd63562af5e7269ea&txTime=771EF880
宁夏卫视,http://[2409:8087:1a01:df::4077]:80/ottrrs.hl.chinamobile.com/PLTV/88888888/8/3221226454/index.m3u8
陕西卫视,http://[2409:8087:5e00:24::1e]:6060/000000001000/1000000002000007495/1.m3u8
吉林卫视,http://[2409:8087:1a01:df::7005]:80/ottrrs.hl.chinamobile.com/PLTV/88888888/224/3221226397/index.m3u8
甘肃卫视,http://[2409:8087:1a0b:df::4005]:80/ottrrs.hl.chinamobile.com/PLTV/88888888/224/3221225633/index.m3u8
云南卫视,http://[2409:8087:5e00:24::1e]:6060/200000001898/460000089800010119/1.m3u8
三沙卫视,http://[2409:8087:5e00:24::1e]:6060/000000001000/4600001000000000117/1.m3u8
青海卫视,http://[2409:8087:1a0b:df::4002]:80/ottrrs.hl.chinamobile.com/PLTV/88888888/224/3221225628/index.m3u8
新疆卫视,http://[2409:8087:1a0b:df::4005]:80/ottrrs.hl.chinamobile.com/PLTV/88888888/224/3221225635/index.m3u8
西藏卫视,http://[2409:8087:5e00:24::1e]:6060/000000001000/6603041244077933770/1.m3u8
兵团卫视,http://[2409:8087:1a0b:df::4020]:80/ottrrs.hl.chinamobile.com/PLTV/88888888/224/3221226439/index.m3u8
延边卫视,http://[2409:8087:1a0b:df::4020]:80/ottrrs.hl.chinamobile.com/PLTV/88888888/224/3221226516/index.m3u8
安多卫视,http://[2409:8087:1a0b:df::4007]:80/ottrrs.hl.chinamobile.com/PLTV/88888888/224/3221225659/index.m3u8
厦门卫视,http://[2409:8087:5e00:24::1e]:6060/000000001000/1000000005000266006/1.m3u8
康巴卫视,http://[2409:8087:1a0b:df::4005]:80/ottrrs.hl.chinamobile.com/PLTV/88888888/224/3221225660/index.m3u8

上海新闻,http://[2409:8087:5e08:24::12]:6610/000000001000/2000000002000000005/index.m3u8?stbId=3&livemode=1&HlsProfileId=&channel-id=hnbblive&Contentid=2000000002000000005&IASHttpSessionId=OTT19019320240419154124000281
上海都市,http://[2409:8087:5e08:24::12]:6610/000000001000/2000000002000000012/index.m3u8?stbId=3&livemode=1&HlsProfileId=&channel-id=hnbblive&Contentid=2000000002000000012&IASHttpSessionId=OTT19019320240419154124000281
上海外语,http://[2409:8087:5e08:24::12]:6610/000000001000/2000000002000000001/index.m3u8?stbId=3&livemode=1&HlsProfileId=&channel-id=hnbblive&Contentid=2000000002000000001&IASHttpSessionId=OTT19019320240419154124000281
七彩戏剧,http://[2409:8087:5e08:24::12]:6610/000000001000/2000000002000000010/index.m3u8?stbId=3&livemode=1&HlsProfileId=&channel-id=hnbblive&Contentid=2000000002000000010&IASHttpSessionId=OTT19019320240419154124000281
五星体育,http://[2409:8087:5e08:24::12]:6610/000000001000/2000000002000000007/index.m3u8?stbId=3&livemode=1&HlsProfileId=&channel-id=hnbblive&Contentid=2000000002000000007&IASHttpSessionId=OTT19019320240419154124000281
东方影视,http://[2409:8087:5e08:24::12]:6610/000000001000/2000000002000000013/index.m3u8?stbId=3&livemode=1&HlsProfileId=&channel-id=hnbblive&Contentid=2000000002000000013&IASHttpSessionId=OTT19019320240419154124000281
东方财经,http://[2409:8087:5e08:24::12]:6610/000000001000/2000000002000000090/index.m3u8?stbId=3&livemode=1&HlsProfileId=&channel-id=hnbblive&Contentid=2000000002000000090&IASHttpSessionId=OTT19019320240419154124000281
法治天地,http://[2409:8087:5e08:24::12]:6610/000000001000/2000000002000000014/index.m3u8?stbId=3&livemode=1&HlsProfileId=&channel-id=hnbblive&Contentid=2000000002000000014&IASHttpSessionId=OTT19019320240419154124000281
第一财经,http://[2409:8087:5e08:24::12]:6610/000000001000/2000000002000000004/index.m3u8?stbId=3&livemode=1&HlsProfileId=&channel-id=hnbblive&Contentid=2000000002000000004&IASHttpSessionId=OTT19019320240419154124000281

浙江新闻,https://ali-m-l.cztv.com/channels/lantian/channel007/1080p.m3u8
浙江国际,https://ali-m-l.cztv.com/channels/lantian/channel010/1080p.m3u8
浙江少儿,https://ali-m-l.cztv.com/channels/lantian/channel008/1080p.m3u8
浙江教科,https://ali-m-l.cztv.com/channels/lantian/channel004/1080p.m3u8
之江纪录,https://ali-m-l.cztv.com/channels/lantian/channel012/1080p.m3u8
浙江民生,https://ali-m-l.cztv.com/channels/lantian/channel006/1080p.m3u8
浙江经济,https://ali-m-l.cztv.com/channels/lantian/channel003/1080p.m3u8
浙江钱江,https://ali-m-l.cztv.com/channels/lantian/channel002/1080p.m3u8

内蒙新闻,https://livestream-bt.nmtv.cn/nmtv/2316general.m3u8?txSecret=173f71025a2de64458989cfb281a0a37&txTime=771E8800
内蒙经济,https://livestream-bt.nmtv.cn/nmtv/2317general.m3u8?txSecret=8e4b7cf6a2c8a75f74aef1a8a07cef43&txTime=771E8800
内蒙少儿,https://livestream-bt.nmtv.cn/nmtv/2318general.m3u8?txSecret=ff5a1fd70ea228ee35b0d29895f37c56&txTime=771E8800
内蒙文体,https://livestream-bt.nmtv.cn/nmtv/2319general.m3u8?txSecret=82ed51a2a4cbf85b62fec8ef2bfe4529&txTime=771E8800
内蒙农牧,https://livestream-bt.nmtv.cn/nmtv/2320general.m3u8?txSecret=b5e44fcd9473993661f17746112ad1b7&txTime=771E8800
蒙语卫视,https://livestream-bt.nmtv.cn/nmtv/2315general.m3u8?txSecret=e2b255285dd119a92c8aa5cdf00f8b84&txTime=771EF880
蒙语文化,https://livestream-bt.nmtv.cn/nmtv/2321general.m3u8?txSecret=2250268a1d326dbbc4cbf0ba32649ca5&txTime=771E8800

港●澳●台,#genre#
香港卫视,http://zhibo.hkstv.tv/livestream/mutfysrq/playlist.m3u8
澳亚卫视,https://live.mastvnet.com/lsdream/lY44pmm/2000/live.m3u8
新加坡中文台,https://d2e1asnsl7br7b.cloudfront.net/7782e205e72f43aeb4a48ec97f66ebbe/index_4.m3u8?zshijd
环球电视台,http://zb.xzxwhcb.com:9999/hls/world.m3u8
番薯,http://61.216.67.119:1935/TWHG/E1/chunklist_w705811302.m3u8
番薯,http://61.216.67.119:1935/TWHG/E1/chunklist_w7058102.m3u8
大立电视,http://www.dalitv.com.tw:4568/live/dali/index.m3u8
FOX新闻,https://fox-foxnewsnow-samsungus.amagi.tv/playlist720p.m3u8
有线新闻台,http://61.10.2.140:80/live_freedirect/freehd209_h.live/chunklist_w135209556.m3u8
有线新闻台,http://61.10.2.141/live_freedirect/freehd209_h.live/playlist.m3u8
有线新闻台,http://cm61-10-2-143.hkcable.com.hk/live_freedirect/freehd209_h.live/playlist.m3u8

移动专区,#genre#
CCTV1,http://[2409:8087:7008:20::8]:80/dbiptv.sn.chinamobile.com/PLTV/88888888/224/3221226231/index.m3u8
CCTV2,http://[2409:8087:7008:20::8]:80/dbiptv.sn.chinamobile.com/PLTV/88888888/224/3221226195/index.m3u8
CCTV3,http://[2409:8087:7008:20::2]:80/dbiptv.sn.chinamobile.com/PLTV/88888888/224/3221226397/index.m3u8
CCTV4,http://[2409:8087:7008:20::8]:80/dbiptv.sn.chinamobile.com/PLTV/88888888/224/3221226191/index.m3u8
CCTV5,http://[2409:8087:7008:20::8]:80/dbiptv.sn.chinamobile.com/PLTV/88888888/224/3221226395/index.m3u8
CCTV5+,http://[2409:8087:7008:20::8]:80/dbiptv.sn.chinamobile.com/PLTV/88888888/224/3221225761/index.m3u8
CCTV6,http://[2409:8087:7008:20::8]:80/dbiptv.sn.chinamobile.com/PLTV/88888888/224/3221226393/index.m3u8
CCTV7,http://[2409:8087:7008:20::8]:80/dbiptv.sn.chinamobile.com/PLTV/88888888/224/3221226192/index.m3u8
CCTV8,http://[2409:8087:7008:20::2]:80/dbiptv.sn.chinamobile.com/PLTV/88888888/224/3221226391/index.m3u8
CCTV9,http://[2409:8087:7008:20::8]:80/dbiptv.sn.chinamobile.com/PLTV/88888888/224/3221226197/index.m3u8
CCTV10,http://[2409:8087:7008:20::8]:80/dbiptv.sn.chinamobile.com/PLTV/88888888/224/3221226189/index.m3u8
CCTV11,http://[2409:8087:7008:20::2]:80/dbiptv.sn.chinamobile.com/PLTV/88888888/224/3221226240/index.m3u8
CCTV12,http://[2409:8087:7008:20::8]:80/dbiptv.sn.chinamobile.com/PLTV/88888888/224/3221226190/index.m3u8
CCTV13,http://[2409:8087:7008:20::8]:80/dbiptv.sn.chinamobile.com/PLTV/88888888/224/3221226233/index.m3u8
CCTV14,http://[2409:8087:7008:20::8]:80/dbiptv.sn.chinamobile.com/PLTV/88888888/224/3221226193/index.m3u8
CCTV15,http://[2409:8087:7008:20::2]:80/dbiptv.sn.chinamobile.com/PLTV/88888888/224/3221225785/index.m3u8
CCTV16,http://[2409:8087:7008:20::8]:80/dbiptv.sn.chinamobile.com/PLTV/88888888/224/3221226921/index.m3u8
CCTV17,http://[2409:8087:7008:20::8]:80/dbiptv.sn.chinamobile.com/PLTV/88888888/224/3221226198/index.m3u8
CHC动作电影,http://[2409:8087:7008:20::2]:80/dbiptv.sn.chinamobile.com/PLTV/88888888/224/3221226465/index.m3u8
CHC家庭影院,http://[2409:8087:7008:20::8]:80/dbiptv.sn.chinamobile.com/PLTV/88888888/224/3221226462/index.m3u8
CHC影迷电影,http://[2409:8087:7008:20::8]:80/dbiptv.sn.chinamobile.com/PLTV/88888888/224/3221226463/index.m3u8
CGTN,https://0472.org/hls/cgtn.m3u8
CGTN纪录,https://0472.org/hls/cgtnd.m3u8
CGTN俄语,https://0472.org/hls/cgtne.m3u8
CGTN法语,https://0472.org/hls/cgtnf.m3u8
CGTN西语,https://0472.org/hls/cgtnx.m3u8
CGTN阿语,https://0472.org/hls/cgtna.m3u8

电信专区,#genre#
CCTV1综合,http://150.138.8.143/00/SNM/CHANNEL00000311/index.m3u8
CCTV2财经,http://150.138.8.143/00/SNM/CHANNEL00000317/index.m3u8
CCTV3综艺,http://150.138.8.143/00/SNM/CHANNEL00000359/index.m3u8
CCTV4中文国际,http://150.138.8.143/00/SNM/CHANNEL00000320/index.m3u8
CCTV5体育,http://150.138.8.143/00/SNM/CHANNEL30000005/index.m3u8
CCTV5体育,http://150.138.8.143/00/SNM/CHANNEL00000360/index.m3u8
CCTV5+体育赛事,http://150.138.8.143/00/SNM/CHANNEL00000316/index.m3u8
CCTV6电影,http://150.138.8.143/00/SNM/CHANNEL00000006/index.m3u8
CCTV6电影,http://150.138.8.143/00/SNM/CHANNEL00000361/index.m3u8
CCTV7国防军事,http://150.138.8.143/00/SNM/CHANNEL00000318/index.m3u8
CCTV8电视剧,http://150.138.8.143/00/SNM/CHANNEL00000008/index.m3u8
CCTV8电视剧,http://150.138.8.143/00/SNM/CHANNEL00000362/index.m3u8
CCTV9纪录,http://150.138.8.143/00/SNM/CHANNEL00000319/index.m3u8
CCTV10科教,http://150.138.8.143/00/SNM/CHANNEL00000321/index.m3u8
CCTV11戏曲,http://150.138.8.143/00/SNM/CHANNEL00000344/index.m3u8
CCTV12社会与法,http://150.138.8.143/00/SNM/CHANNEL00000322/index.m3u8
CCTV13新闻,http://150.138.8.143/00/SNM/CHANNEL00000345/index.m3u8
CCTV14少儿,http://150.138.8.143/00/SNM/CHANNEL00000323/index.m3u8
CCTV15音乐,http://150.138.8.143/00/SNM/CHANNEL00000346/index.m3u8
CCTV16奥林匹克,http://150.138.8.143/00/SNM/CHANNEL00000364/index.m3u8
CCTV17农业农村,http://150.138.8.143/00/SNM/CHANNEL00000303/index.m3u8
CGTN,http://150.138.8.143/00/SNM/CHANNEL00000352/index.m3u8
CGTN纪录,http://150.138.8.143/00/SNM/CHANNEL00000353/index.m3u8
CGTN俄语,http://150.138.8.143/00/SNM/CHANNEL00000357/index.m3u8
CGTN阿拉伯语,http://150.138.8.143/00/SNM/CHANNEL00000356/index.m3u8
CGTN西班牙语,http://150.138.8.143/00/SNM/CHANNEL00000354/index.m3u8
CCTV4中文国际欧洲,http://150.138.8.143/00/SNM/CHANNEL00000350/index.m3u8
CCTV4中文国际美洲,http://150.138.8.143/00/SNM/CHANNEL00000351/index.m3u8
江苏卫视,http://150.138.8.143/00/SNM/CHANNEL00000304/index.m3u8
安徽卫视,http://150.138.8.143/00/SNM/CHANNEL00000328/index.m3u8
北京卫视,http://150.138.8.143/00/SNM/CHANNEL00000302/index.m3u8
天津卫视,http://150.138.8.143/00/SNM/CHANNEL00000021/index.m3u8
辽宁卫视,http://150.138.8.143/00/SNM/CHANNEL00000026/index.m3u8
黑龙江卫视,http://150.138.8.143/00/SNM/CHANNEL00000306/index.m3u8
广东卫视,http://150.138.8.143/00/SNM/CHANNEL00000307/index.m3u8
深圳卫视,http://150.138.8.143/00/SNM/CHANNEL00000308/index.m3u8
广西卫视,http://150.138.8.143/00/SNM/CHANNEL00000038/index.m3u8
东南卫视,http://150.138.8.143/00/SNM/CHANNEL00000310/index.m3u8
云南卫视,http://150.138.8.143/00/SNM/CHANNEL00000039/index.m3u8
河北卫视,http://150.138.8.143/00/SNM/CHANNEL00000034/index.m3u8
河南卫视,http://150.138.8.143/00/SNM/CHANNEL00000037/index.m3u8
河南卫视,http://150.138.8.143/00/SNM/CHANNEL00000358/index.m3u8
湖北卫视,http://150.138.8.143/00/SNM/CHANNEL00000031/index.m3u8
吉林卫视,http://150.138.8.143/00/SNM/CHANNEL00000036/index.m3u8
山西卫视,http://150.138.8.143/00/SNM/CHANNEL00000032/index.m3u8
陕西卫视,http://150.138.8.143/00/SNM/CHANNEL00000029/index.m3u8
贵州卫视,http://150.138.8.143/00/SNM/CHANNEL00000041/index.m3u8
江西卫视,http://150.138.8.143/00/SNM/CHANNEL00000035/index.m3u8
宁夏卫视,http://150.138.8.143/00/SNM/CHANNEL00000043/index.m3u8
青海卫视,http://150.138.8.143/00/SNM/CHANNEL00000042/index.m3u8
西藏卫视,http://150.138.8.143/00/SNM/CHANNEL00000045/index.m3u8
新疆卫视,http://150.138.8.143/00/SNM/CHANNEL00000044/index.m3u8
内蒙古卫视,http://150.138.8.143/00/SNM/CHANNEL00000040/index.m3u8
浙江卫视,http://150.138.8.143/00/SNM/CHANNEL00000305/index.m3u8
湖南卫视,http://150.138.8.143/00/SNM/CHANNEL00000324/index.m3u8
重庆卫视,http://150.138.8.143/00/SNM/CHANNEL00000341/index.m3u8
厦门卫视,http://150.138.8.143/00/SNM/CHANNEL00000075/index.m3u8
四川卫视,http://150.138.8.143/00/SNM/CHANNEL00000348/index.m3u8
海南卫视,http://150.138.8.143/00/SNM/CHANNEL00000347/index.m3u8
甘肃卫视,http://150.138.8.143/00/SNM/CHANNEL00000349/index.m3u8
兵团卫视,http://150.138.8.143/00/SNM/CHANNEL00000071/index.m3u8
哈哈炫动,http://150.138.8.143/00/SNM/CHANNEL00000050/index.m3u8
优漫卡通,http://150.138.8.143/00/SNM/CHANNEL00000049/index.m3u8
卡酷动画,http://150.138.8.143/00/SNM/CHANNEL00000048/index.m3u8
金鹰卡通,http://150.138.8.143/00/SNM/CHANNEL00000047/index.m3u8
济南少儿,http://150.138.8.143/00/SNM/CHANNEL00000067/index.m3u8
嘉佳卡通,http://150.138.8.143/00/SNM/CHANNEL00000074/index.m3u8
CETV1,http://150.138.8.143/00/SNM/CHANNEL00000076/index.m3u8
CETV2,http://150.138.8.143/00/SNM/CHANNEL00000077/index.m3u8
四海钓鱼,http://150.138.8.143/00/SNM/CHANNEL00000640/index.m3u8
优优宝贝,http://150.138.8.143/00/SNM/CHANNEL00000641/index.m3u8
环球旅游,http://150.138.8.143/00/SNM/CHANNEL00000643/index.m3u8
新娱乐,http://150.138.8.143/00/SNM/CHANNEL00000644/index.m3u8
车迷频道,http://150.138.8.143/00/SNM/CHANNEL00000645/index.m3u8
足球,http://150.138.8.143/00/SNM/CHANNEL00000704/index.m3u8
滨州新闻,http://150.138.8.143/00/SNM/CHANNEL00000220/index.m3u8
滨州公共,http://150.138.8.143/00/SNM/CHANNEL00000221/index.m3u8
东营新闻,http://150.138.8.143/00/SNM/CHANNEL00000226/index.m3u8
东营公共,http://150.138.8.143/00/SNM/CHANNEL00000227/index.m3u8
菏泽新闻综合,http://150.138.8.143/00/SNM/CHANNEL00000232/index.m3u8
济宁综合,http://150.138.8.143/00/SNM/CHANNEL00000238/index.m3u8
济宁综合,http://150.138.8.143/00/SNM/CHANNEL00000240/index.m3u8
济宁教育,http://150.138.8.143/00/SNM/CHANNEL00000239/index.m3u8
日照科教,http://150.138.8.143/00/SNM/CHANNEL00000263/index.m3u8
烟台新闻,http://150.138.8.143/00/SNM/CHANNEL00000280/index.m3u8
烟台公共,http://150.138.8.143/00/SNM/CHANNEL00000281/index.m3u8
淄博新闻,http://150.138.8.143/00/SNM/CHANNEL00000292/index.m3u8
淄博都市,http://150.138.8.143/00/SNM/CHANNEL00000293/index.m3u8
淄博生活,http://150.138.8.143/00/SNM/CHANNEL00000294/index.m3u8
农林卫视,http://150.138.8.143/00/SNM/CHANNEL00000072/index.m3u8
三沙卫视,http://150.138.8.143/00/SNM/CHANNEL00000078/index.m3u8
中国交通,http://150.138.8.143/00/SNM/CHANNEL00000073/index.m3u8
财富天下,http://150.138.8.143/00/SNM/CHANNEL00000607/index.m3u8
菏泽公共,http://150.138.8.143/00/SNM/CHANNEL00000234/index.m3u8
聊城综合,http://150.138.8.143/00/SNM/CHANNEL00000250/index.m3u8
聊城公共,http://150.138.8.143/00/SNM/CHANNEL00000251/index.m3u8
济宁公共,http://150.138.8.143/00/SNM/CHANNEL00000241/index.m3u8
日照综合,http://150.138.8.143/00/SNM/CHANNEL00000262/index.m3u8
烟台经济科技,http://150.138.8.143/00/SNM/CHANNEL00000282/index.m3u8
烟台影视,http://150.138.8.143/00/SNM/CHANNEL00000283/index.m3u8

数字频道,#genre#
纪实科教,http://[2409:8087:1a01:df::7005]:80/ottrrs.hl.chinamobile.com/PLTV/88888888/224/3221225729/index.m3u8
乐游频道,http://[2409:8087:5e08:24::12]:6610/000000001000/2000000002000000092/index.m3u8?stbId=3&livemode=1&HlsProfileId=&channel-id=hnbblive&Contentid=2000000002000000092&IASHttpSessionId=OTT19019320240419154124000281
欢笑剧场,http://[2409:8087:5e00:24::1e]:6060/000000001000/5000000002000009455/1.m3u8
卡酷少儿,http://[2409:8087:1a0b:df::4020]:80/ottrrs.hl.chinamobile.com/PLTV/88888888/224/3221225654/index.m3u8
金鹰卡通,http://[2409:8087:1a0b:df::4008]:80/ottrrs.hl.chinamobile.com/PLTV/88888888/224/3221225653/index.m3u8
金鹰纪实,http://[2409:8087:5e00:24::1e]:6060/000000001000/5000000011000031203/1.m3u8
快乐垂钓,http://[2409:8087:5e00:24::1e]:6060/000000001000/5000000011000031206/1.m3u8
茶友频道,http://[2409:8087:5e00:24::1e]:6060/000000001000/5000000011000031209/1.m3u8
游戏风云,http://[2409:8087:5e00:24::1e]:6060/000000001000/5000000011000031114/1.m3u8
动漫秀场,http://[2409:8087:5e00:24::1e]:6060/000000001000/5000000011000031113/1.m3u8
嘉佳卡通,http://[2409:8087:5e00:24::1e]:6060/000000001000/1000000002000025964/1.m3u8
哒啵赛事,http://[2409:8087:1a01:df::7005]:80/ottrrs.hl.chinamobile.com/PLTV/88888888/224/3221225675/index.m3u8
哒啵电竞,http://[2409:8087:5e08:24::12]:6610/000000001000/2000000003000000066/index.m3u8?stbId=3&livemode=1&HlsProfileId=&channel-id=hnbblive&Contentid=2000000003000000066&IASHttpSessionId=OTT19019320240419154124000281
优漫卡通,http://[2409:8087:1a0b:df::4005]:80/ottrrs.hl.chinamobile.com/PLTV/88888888/224/3221225656/index.m3u8
哈哈炫动,http://[2409:8087:1a0b:df::4001]:80/ottrrs.hl.chinamobile.com/PLTV/88888888/224/3221225657/index.m3u8
黑莓动画,http://[2409:8087:1a0b:df::4006]:80/ottrrs.hl.chinamobile.com/PLTV/88888888/224/3221225662/index.m3u8
黑莓电影,http://[2409:8087:1a0b:df::4014]:80/ottrrs.hl.chinamobile.com/PLTV/88888888/224/3221225743/index.m3u8
求索记录,http://[2409:8087:5e08:24::12]:6610/000000001000/2000000004000000010/index.m3u8?stbId=3&livemode=1&HlsProfileId=&channel-id=hnbblive&Contentid=2000000004000000010&IASHttpSessionId=OTT19019320240419154124000281
求索动物,http://[2409:8087:5e08:24::12]:6610/000000001000/2000000004000000009/index.m3u8?stbId=3&livemode=1&HlsProfileId=&channel-id=hnbblive&Contentid=2000000004000000009&IASHttpSessionId=OTT19019320240419154124000281
求索科学,http://[2409:8087:5e08:24::12]:6610/000000001000/2000000004000000011/index.m3u8?stbId=3&livemode=1&HlsProfileId=&channel-id=hnbblive&Contentid=2000000004000000011&IASHttpSessionId=OTT19019320240419154124000281
求索生活,http://[2409:8087:5e08:24::12]:6610/000000001000/2000000004000000008/index.m3u8?stbId=3&livemode=1&HlsProfileId=&channel-id=hnbblive&Contentid=2000000004000000008&IASHttpSessionId=OTT19019320240419154124000281
海外剧场,http://[2409:8087:1a0b:df::4005]:80/ottrrs.hl.chinamobile.com/PLTV/88888888/224/3221225671/index.m3u8
中国功夫,http://[2409:8087:1a0b:df::4001]:80/ottrrs.hl.chinamobile.com/PLTV/88888888/224/3221225681/index.m3u8
军旅剧场,http://[2409:8087:1a0b:df::4018]:80/ottrrs.hl.chinamobile.com/PLTV/88888888/224/3221225676/index.m3u8
惊悚悬疑,http://[2409:8087:1a0b:df::4002]:80/ottrrs.hl.chinamobile.com/PLTV/88888888/224/3221225665/index.m3u8
潮妈辣婆,http://[2409:8087:1a0b:df::4007]:80/ottrrs.hl.chinamobile.com/PLTV/88888888/224/3221225685/index.m3u8
精品体育,http://[2409:8087:1a0b:df::4004]:80/ottrrs.hl.chinamobile.com/PLTV/88888888/224/3221225674/index.m3u8
精品纪录,http://[2409:8087:1a0b:df::4007]:80/ottrrs.hl.chinamobile.com/PLTV/88888888/224/3221225672/index.m3u8
家庭剧场,http://[2409:8087:1a0b:df::4007]:80/ottrrs.hl.chinamobile.com/PLTV/88888888/224/3221225677/index.m3u8
精品大剧,http://[2409:8087:1a0b:df::4001]:80/ottrrs.hl.chinamobile.com/PLTV/88888888/224/3221225670/index.m3u8
军事评论,http://[2409:8087:1a0b:df::4005]:80/ottrrs.hl.chinamobile.com/PLTV/88888888/224/3221225668/index.m3u8
明星大片,http://[2409:8087:1a0b:df::4005]:80/ottrrs.hl.chinamobile.com/PLTV/88888888/224/3221225664/index.m3u8
精品萌宠,http://[2409:8087:1a01:df::7005]:80/ottrrs.hl.chinamobile.com/PLTV/88888888/224/3221226505/index.m3u8
超级综艺,http://[2409:8087:1a01:df::7005]:80/ottrrs.hl.chinamobile.com/PLTV/88888888/224/3221225714/index.m3u8
金牌综艺,http://[2409:8087:1a01:df::7005]:80/ottrrs.hl.chinamobile.com/PLTV/88888888/224/3221225666/index.m3u8


历届春晚,#genre#
1983年,https://alimov2.a.kwimgs.com/upic/2022/01/31/15/BMjAyMjAxMzExNTU5MTRfNDAzMDAxOTlfNjYyNzMxNjcwMjBfMF8z_b_Beb3bda599f76c60c463c433ca7460153.mp4
1984年,https://alimov2.a.kwimgs.com/upic/2022/01/31/15/BMjAyMjAxMzExNTU5NTRfNDAzMDAxOTlfNjYyNzMyMzg3MTRfMF8z_b_B192356dadbc90d207ba16964d4c2914c.mp4
1985年,https://alimov2.a.kwimgs.com/upic/2022/01/31/16/BMjAyMjAxMzExNjAwMDFfNDAzMDAxOTlfNjYyNzMyNTAwMzJfMF8z_b_Be73c5abcbc0eeb2ec9fce6842e1362a4.mp4
1986年,https://txmov2.a.kwimgs.com/upic/2022/01/31/16/BMjAyMjAxMzExNjAwMDRfNDAzMDAxOTlfNjYyNzMyNTU0OTRfMF8z_b_B24f7d19f1132fa5d7f502f8377ad5567.mp4
1987年,https://txmov2.a.kwimgs.com/upic/2022/01/31/16/BMjAyMjAxMzExNjAwMDhfNDAzMDAxOTlfNjYyNzMyNjMyMDNfMF8z_b_B570493ed8f7200d4013a66b2d21b2de9.mp4
1988年,https://txmov2.a.kwimgs.com/upic/2022/01/31/16/BMjAyMjAxMzExNjAwMTJfNDAzMDAxOTlfNjYyNzMyNjkxNjBfMF8z_b_B8c835b83a92d25bde81ba22c5cd9521e.mp4
1989年,https://txmov2.a.kwimgs.com/upic/2022/01/31/16/BMjAyMjAxMzExNjAwMTVfNDAzMDAxOTlfNjYyNzMyNzQ2OTlfMF8z_b_Be477b27b9ce655d2372df56a5a3d96ef.mp4
1993年,https://alimov2.a.kwimgs.com/upic/2023/01/13/22/BMjAyMzAxMTMyMjEwMDNfNDAzMDAxOTlfOTM1MTIzMzYwODJfMF8z_b_B647d10e431b4cc5e48e6c77347d69021.mp4
1994年,https://alimov2.a.kwimgs.com/upic/2023/01/13/22/BMjAyMzAxMTMyMjEwMDNfNDAzMDAxOTlfOTM1MTIzMzYxMjNfMF8z_b_B3dde97f36273f04403d4dc5eec611a35.mp4
1995年,https://txmov2.a.kwimgs.com/upic/2023/01/13/20/BMjAyMzAxMTMyMDA5MjJfNDAzMDAxOTlfOTM0OTkwNDQwNzVfMF8z_b_B811c0dec6b9a3d3074a18522c185010a.mp4
1996年,https://alimov2.a.kwimgs.com/upic/2023/01/13/22/BMjAyMzAxMTMyMjEwMDNfNDAzMDAxOTlfOTM1MTIzMzYxNTJfMF8z_b_Bd841eae10ab1c9955ef55fbedfae6c45.mp4
1997年,https://txmov2.a.kwimgs.com/upic/2023/01/13/22/BMjAyMzAxMTMyMjEwMDNfNDAzMDAxOTlfOTM1MTIzMzYxNTJfMF8z_b_Bd841eae10ab1c9955ef55fbedfae6c45.mp4
1999年,https://alimov2.a.kwimgs.com/upic/2023/01/13/20/BMjAyMzAxMTMyMDA5MjJfNDAzMDAxOTlfOTM0OTkwNDQxNTRfMF8z_b_B0b5e52bc003285ef66ec0cbb2be08556.mp4
2000年,https://alimov2.a.kwimgs.com/upic/2023/01/13/21/BMjAyMzAxMTMyMTE4MzRfNDAzMDAxOTlfOTM1MDY4ODIxMTNfMF8z_b_Bdddf4e7ef0ff6cfd477857bb40e78419.mp4
2001年,https://alimov2.a.kwimgs.com/upic/2023/01/13/20/BMjAyMzAxMTMyMDA5MjJfNDAzMDAxOTlfOTM0OTkwNDQyMDFfMF8z_b_B70592cb7c4054e9cabb675e849bbf4bd.mp4
2002年,https://alimov2.a.kwimgs.com/upic/2023/01/13/21/BMjAyMzAxMTMyMTE4MzRfNDAzMDAxOTlfOTM1MDY4ODIxNDdfMF8z_b_Ba6271d10b7e6cfae83759033a091f257.mp4
2003年,https://txmov2.a.kwimgs.com/upic/2023/01/14/23/BMjAyMzAxMTQyMzQxNDdfNDAzMDAxOTlfOTM2MTU0MTk1NDFfMF8z_b_B182749d2cd2ea9323639254af385f24b.mp4
2004年,https://alimov2.a.kwimgs.com/upic/2023/01/13/21/BMjAyMzAxMTMyMTE4MzRfNDAzMDAxOTlfOTM1MDY4ODIxOTVfMF8z_b_B86c4430b82ff5a7f4e8132f6ee558536.mp4
2005年,https://alimov2.a.kwimgs.com/upic/2023/01/13/20/BMjAyMzAxMTMyMDA5MjJfNDAzMDAxOTlfOTM0OTkwNDQyMzhfMF8z_b_B35ad7cc86aec8fc9e5ddfb31fc7bed63.mp4
2006年,https://alimov2.a.kwimgs.com/upic/2023/01/13/20/BMjAyMzAxMTMyMDA5MjJfNDAzMDAxOTlfOTM0OTkwNDQyNzlfMF8z_b_Bbc3703fc331dc994c50859c19aad28ff.mp4
2007年,https://alimov2.a.kwimgs.com/upic/2023/01/13/20/BMjAyMzAxMTMyMDA5MjJfNDAzMDAxOTlfOTM0OTkwNDQzMjNfMF8z_b_B00b069c7899976459ceeaa99353dfefe.mp4
2008年,https://txmov2.a.kwimgs.com/upic/2023/01/13/20/BMjAyMzAxMTMyMDA5MjJfNDAzMDAxOTlfOTM0OTkwNDQzNTNfMF8z_b_Bd7346962e61bd7b84e11a1fa6e4616f9.mp4
2009年,https://alimov2.a.kwimgs.com/upic/2023/01/13/20/BMjAyMzAxMTMyMDA5MjJfNDAzMDAxOTlfOTM0OTkwNDQzOTBfMF8z_b_B29a36a85e0277f6c2a1f033ef7c10708.mp4
2010年,https://txmov2.a.kwimgs.com/upic/2023/01/13/20/BMjAyMzAxMTMyMDA5MjJfNDAzMDAxOTlfOTM0OTkwNDQ0MjlfMF8z_b_B8818807a00eed329a69fb494f405bd43.mp4
2011年,https://txmov2.a.kwimgs.com/upic/2023/01/16/11/BMjAyMzAxMTYxMTA3MjFfNDAzMDAxOTlfOTM3MjcyMjA3ODhfMF8z_b_B8214200efc869dc6fcf99dad619fa4c1.mp4
2013年,https://alimov2.a.kwimgs.com/upic/2023/01/13/20/BMjAyMzAxMTMyMDA5MjJfNDAzMDAxOTlfOTM0OTkwNDQ1NjNfMF8z_b_B4fea55408dca4471a68a963ae096be59.mp4
2014年‎,https://txmov2.a.kwimgs.com/upic/2023/01/06/16/BMjAyMzAxMDYxNjMxMTNfNDAzMDAxOTlfOTI4OTY2ODAzNjlfMF8z_b_Bdee65c77f9e7b2120a185c919dad81d2.mp4
2015年,https://alimov2.a.kwimgs.com/upic/2023/01/13/20/BMjAyMzAxMTMyMDA5MjJfNDAzMDAxOTlfOTM0OTkwNDQ2MTZfMF8z_b_B4851f43f5a2bc2871a9b0ec87294a6e7.mp4
2017年,https://alimov2.a.kwimgs.com/upic/2023/01/13/20/BMjAyMzAxMTMyMDA5MjJfNDAzMDAxOTlfOTM0OTkwNDQ2NDhfMF8z_b_B6527b0c2ce3dda1d9b3f34edd4fdb9aa.mp4
2018年,https://alimov2.a.kwimgs.com/upic/2023/01/06/16/BMjAyMzAxMDYxNjMxMTRfNDAzMDAxOTlfOTI4OTY2ODE2MTBfMF8z_b_B11a778e34390a21de42d407e94f45b91.mp4
2019年,https://txmov2.a.kwimgs.com/upic/2023/01/06/16/BMjAyMzAxMDYxNjMxMTRfNDAzMDAxOTlfOTI4OTY2ODE2MTBfMF8z_b_B11a778e34390a21de42d407e94f45b91.mp4
2020年,https://txmov2.a.kwimgs.com/upic/2022/01/30/17/BMjAyMjAxMzAxNzA5NDdfNDAzMDAxOTlfNjYxNzQ2MDAyMTFfMF8z_b_B5d51d9564c5670dc66faeba20aa7af3f.mp4
2021年,https://alimov2.a.kwimgs.com/upic/2022/01/30/17/BMjAyMjAxMzAxNzE4NTJfNDAzMDAxOTlfNjYxNzUzOTg3NjlfMF8z_b_Be41d9503181d7b0608a839ed401e02c2.mp4
2022年,https://txmov2.a.kwimgs.com/upic/2022/02/01/11/BMjAyMjAyMDExMTEwMjNfNDAzMDAxOTlfNjYzNzA4MTk4NzNfMF8z_b_B898cc7ddd0025bf54ddb18ec1f723c84.mp4

🌏纪录片,#genre#
美丽中国自然,http://hls.cntv.myhwcdn.cn/asp/hls/4000/0303000a/3/default/51d937a0201f4c78a5878b4b37089f3b/4000.m3u8
航拍中国第一季,http://hls.cntv.myhwcdn.cn/asp/hls/4000/0303000a/3/default/8edf3fb6a69148ea9a7dc0b5a9d99fdb/4000.m3u8
航拍中国第二季,http://newcntv.qcloudcdn.com/asp/hls/4000/0303000a/3/default/2bdfdad540b342f592f9817cb7f3b79a/4000.m3u8
航拍中国第三季,http://hls.cntv.kcdnvip.com/asp/hls/1200/0303000a/3/default/18a8a559464448dbaf60d33913e09aea/1200.m3u8
生命脉动,http://hls.cntv.myhwcdn.cn/asp/hls/850/0303000a/3/default/c481b5826ffc4e99a92e01704c862dbc/850.m3u8
自然传奇,http://newcntv.qcloudcdn.com/asp/hls/1200/0303000a/3/default/81a1ad3a661748bfb8560c92d38204ca/1200.m3u8
探索发现,http://hls.cntv.kcdnvip.com/asp/hls/1200/0303000a/3/default/25137bd7c4494128bf0cba271974928f/1200.m3u8
地理中国,http://newcntv.qcloudcdn.com/asp/hls/1200/0303000a/3/default/c6baf6f74bb944aeacee1065ea72c798/1200.m3u8
大太平洋,http://hls.cntv.kcdnvip.com/asp/hls/4000/0303000a/3/default/2d7f4eeaed2e4ad080bcf324eb21bc0d/4000.m3u8
飞碟之谜01,https://hls.cntv.lxdns.com/asp/hls/2000/0303000a/3/default/f0a47e155d32450daa1d36a04fd7d262/2000.m3u8
飞碟之谜02,https://newcntv.qcloudcdn.com/asp/hls/2000/0303000a/3/default/d2454bbb542d4613a9db478dab2addfd/2000.m3u8
远方的家,http://hls.cntv.kcdnvip.com/asp/hls/4000/0303000a/3/default/162d7e29c3da4aab82ad47b6e2d9e7b4/4000.m3u8
中国村庄,http://newcntv.qcloudcdn.com/asp/hls/4000/0303000a/3/default/93fc12dbf14241c18c23da104fbade23/4000.m3u8
梵净山,http://hls.cntv.myhwcdn.cn/asp/hls/4000/0303000a/3/default/b9571df1181c4422a83901e827519fe6/4000.m3u8
地球脉动第一季,http://hls.cntv.kcdnvip.com/asp/hls/850/0303000a/3/default/7a3423af02284c3db48b854ab646993f/850.m3u8
乘着火车看中国,http://hls.cntv.myhwcdn.cn/asp/hls/4000/0303000a/3/default/2b0f397ed9d948eb9fac38d73cde241b/4000.m3u8
动物世界,https://hls.cntv.kcdnvip.com/asp/hls/1200/0303000a/3/default/71d7dce230b74c1b9e35b41e837ffc5f/1200.m3u8
一片住着熊的森林1,https://hls.cntv.kcdnvip.com/asp/hls/1200/0303000a/3/default/2ac6789acc644b55a4df03445561c56b/1200.m3u8
一片住着熊的森林2,https://hls.cntv.kcdnvip.com/asp/hls/1200/0303000a/3/default/969d426187eb46e19fc6839a435fbf0f/1200.m3u8
一片住着熊的森林3,https://hls.cntv.kcdnvip.com/asp/hls/1200/0303000a/3/default/fd1e9f94afe948efafaa28a882661620/1200.m3u8
与野生动物为邻,https://hls.cntv.kcdnvip.com/asp/hls/1200/0303000a/3/default/d25931bed86a49d4afb8780771797c19/1200.m3u8
丛林之王美洲豹,https://hls.cntv.kcdnvip.com/asp/hls/1200/0303000a/3/default/bbb1037a32ad44cf8bab822eda34bc86/1200.m3u8
丛林勇士之战(上),https://hls.cntv.kcdnvip.com/asp/hls/1200/0303000a/3/default/2550722b92464a749fa7aceb52e22895/1200.m3u8
丛林勇士之战(下),https://hls.cntv.kcdnvip.com/asp/hls/1200/0303000a/3/default/c02959d3f2b14d3abf05ec017179c964/1200.m3u8
传奇母狮,https://hls.cntv.kcdnvip.com/asp/hls/1200/0303000a/3/default/c550dc54139b4e619e7d4a1c1ab69e56/1200.m3u8
兄弟情深(上),https://hls.cntv.kcdnvip.com/asp/hls/1200/0303000a/3/default/0700de47ebc74232bc9f5c5c178aa488/1200.m3u8
兄弟情深(下),https://hls.cntv.kcdnvip.com/asp/hls/1200/0303000a/3/default/30a35b521af54f1a88d74f7215ece1d3/1200.m3u8
兄弟捕猎联盟,https://hls.cntv.kcdnvip.com/asp/hls/1200/0303000a/3/default/0b85d990df5c4f7fae663dc595a084bd/1200.m3u8
充满爱的象家族1,https://hls.cntv.kcdnvip.com/asp/hls/1200/0303000a/3/default/4bd5e30e25244ef1a622142a1053d8c0/1200.m3u8
充满爱的象家族2,https://hls.cntv.kcdnvip.com/asp/hls/1200/0303000a/3/default/0acf5b4f7fc248f1bd0801b768375fd6/1200.m3u8
兽语如歌,https://hls.cntv.kcdnvip.com/asp/hls/1200/0303000a/3/default/9d7bcf3e27d941cfac2e6c933ad9b543/1200.m3u8
冬季传说雪鸮,https://hls.cntv.kcdnvip.com/asp/hls/1200/0303000a/3/default/e76b2116c4514daea844fbdd1b56ab5d/1200.m3u8
冬日雪鸮,https://hls.cntv.kcdnvip.com/asp/hls/1200/0303000a/3/default/1a7b439474b6439c91dc5d5b2cb736d4/1200.m3u8
冰天雪地北极熊(上),https://hls.cntv.kcdnvip.com/asp/hls/1200/0303000a/3/default/15dd2029621a498d9c4d3eb2982285e7/1200.m3u8
冰天雪地北极熊(下),https://hls.cntv.kcdnvip.com/asp/hls/1200/0303000a/3/default/360e77812fc84a8198e85a60f087b049/1200.m3u8
冰雪王国里的童话,https://hls.cntv.kcdnvip.com/asp/hls/1200/0303000a/3/default/3b291326cf2648cd8119f5facf9e3b92/1200.m3u8
冷静与柔情,https://hls.cntv.kcdnvip.com/asp/hls/1200/0303000a/3/default/554c1b879dc646d4ab188dfd58a0f02f/1200.m3u8
凯门鳄的奇妙旅程,https://hls.cntv.kcdnvip.com/asp/hls/1200/0303000a/3/default/aba970eff8be48beb339a2ad027592cf/1200.m3u8
动物与计谋,https://hls.cntv.kcdnvip.com/asp/hls/1200/0303000a/3/default/403122f54ee5492fa9e5d2b8f0087ad2/1200.m3u8
动物冠军俱乐部,https://hls.cntv.kcdnvip.com/asp/hls/1200/0303000a/3/default/65227347336749ffa373661cac985952/1200.m3u8
动物冠军竞技场(上),https://hls.cntv.kcdnvip.com/asp/hls/1200/0303000a/3/default/cf107046774d4db5a1ac622e880488e2/1200.m3u8
动物冠军竞技场(下),https://hls.cntv.kcdnvip.com/asp/hls/1200/0303000a/3/default/9f1dc957013c4765a96b86c1890e4ae2/1200.m3u8
动物宝宝闯天涯(上),https://hls.cntv.kcdnvip.com/asp/hls/1200/0303000a/3/default/e1f91fe01a9b4b24834a0a6e4b309bb2/1200.m3u8
动物宝宝闯天涯(下),https://hls.cntv.kcdnvip.com/asp/hls/1200/0303000a/3/default/d5937591787941518b5a1390f7a1e792/1200.m3u8
动物搏击赛,https://hls.cntv.kcdnvip.com/asp/hls/1200/0303000a/3/default/22ef116331af49a782d42488e396837e/1200.m3u8
动物搏击运动会,https://hls.cntv.kcdnvip.com/asp/hls/1200/0303000a/3/default/0f74c44316a34ea482ecae43f5c12fa8/1200.m3u8
动物父母有梦想(上),https://hls.cntv.kcdnvip.com/asp/hls/1200/0303000a/3/default/f069e600b3584765840f34e9d641919a/1200.m3u8
动物父母有梦想(下),https://hls.cntv.kcdnvip.com/asp/hls/1200/0303000a/3/default/1c1df6f1bff5454a9570693475f920ef/1200.m3u8
动物界捕食奇观,https://hls.cntv.kcdnvip.com/asp/hls/1200/0303000a/3/default/5215de3e2a7b41009ed1ded1f29fea40/1200.m3u8
动物的海底宫殿,https://hls.cntv.kcdnvip.com/asp/hls/1200/0303000a/3/default/0929798fce744530b14a6add96afcdf3/1200.m3u8
动物霓裳羽衣之妙,https://hls.cntv.kcdnvip.com/asp/hls/1200/0303000a/3/default/b4aea8cd185c4126a37aa6e92d179f82/1200.m3u8
勇挑重担的矮獴(上),https://hls.cntv.kcdnvip.com/asp/hls/1200/0303000a/3/default/8ef930c154a446d0a831d2dd93698fd2/1200.m3u8
勇挑重担的矮獴(下),https://hls.cntv.kcdnvip.com/asp/hls/1200/0303000a/3/default/d9ffce5e83824939ab9bb66502778bd9/1200.m3u8
勇敢的王者之心,https://hls.cntv.kcdnvip.com/asp/hls/1200/0303000a/3/default/d37b12d09c4144f0a59560f18ff6508a/1200.m3u8
勇敢的长颈鹿(上),https://hls.cntv.kcdnvip.com/asp/hls/1200/0303000a/3/default/8a9d50517baa443b82b3e4c9e0078351/1200.m3u8
勇敢的长颈鹿(下),https://hls.cntv.kcdnvip.com/asp/hls/1200/0303000a/3/default/773b3e9df72f4834b85c46e0f5b038fb/1200.m3u8
勇闯包围圈,https://hls.cntv.kcdnvip.com/asp/hls/1200/0303000a/3/default/3af15ad56d1640fab9a1a065402b3b76/1200.m3u8
勇闯螃蟹岛,https://hls.cntv.kcdnvip.com/asp/hls/1200/0303000a/3/default/3bba8da0b6c54771aa02b579ba75f8e7/1200.m3u8
勇闯都市丛林,https://hls.cntv.kcdnvip.com/asp/hls/1200/0303000a/3/default/221e94ad951d4001b106d3c5af785537/1200.m3u8
勤奋的捕食者,https://hls.cntv.kcdnvip.com/asp/hls/1200/0303000a/3/default/4793c8276c184d03bc3ba5e9b6dc9610/1200.m3u8
北极熊之光(上),https://hls.cntv.kcdnvip.com/asp/hls/1200/0303000a/3/default/9df8189c94b24b8b8bb6c69e448cc936/1200.m3u8
北极熊之光(下),https://hls.cntv.kcdnvip.com/asp/hls/1200/0303000a/3/default/ca1fabcc21d64b1f8cc933844830fcc5/1200.m3u8
北极熊的冒险之旅(上),https://hls.cntv.kcdnvip.com/asp/hls/1200/0303000a/3/default/e1b4b7a8beb3459bbd44f505a3fcc99c/1200.m3u8
北极熊的冒险之旅(下),https://hls.cntv.kcdnvip.com/asp/hls/1200/0303000a/3/default/9ab29267ff5b4b2b99fdb74d1b9fec55/1200.m3u8
北极熊路在何方,https://hls.cntv.kcdnvip.com/asp/hls/1200/0303000a/3/default/38321222144945faa76d79c7785346a6/1200.m3u8
南美野生世界1,https://hls.cntv.kcdnvip.com/asp/hls/1200/0303000a/3/default/35eac4ae4e024654b845f5c7b2221d15/1200.m3u8
南美野生世界2,https://hls.cntv.kcdnvip.com/asp/hls/1200/0303000a/3/default/9c743ea1e41f4bf585fb1470c9575c0d/1200.m3u8
南美野生世界3,https://hls.cntv.kcdnvip.com/asp/hls/1200/0303000a/3/default/68caf99e50bc496fb478b0ed8f4b421a/1200.m3u8
原野逐梦记,https://hls.cntv.kcdnvip.com/asp/hls/1200/0303000a/3/default/01fcf61e12c242bd81dc5aca38b6f183/1200.m3u8
变形记,https://hls.cntv.kcdnvip.com/asp/hls/1200/0303000a/3/default/c88fd67847314d1ab20524c9fd94d555/1200.m3u8
古老的活化石恒河鳄(上),https://hls.cntv.kcdnvip.com/asp/hls/1200/0303000a/3/default/f8c9f1b5ac454c9a9ec5fda21c62b926/1200.m3u8
古老的活化石恒河鳄(下),https://hls.cntv.kcdnvip.com/asp/hls/1200/0303000a/3/default/966f8103448c4dcdabee095eeb340451/1200.m3u8
可爱的海獭(上),https://hls.cntv.kcdnvip.com/asp/hls/1200/0303000a/3/default/340266a6b3ff421fa174208845f56fef/1200.m3u8
可爱的海獭(下),https://hls.cntv.kcdnvip.com/asp/hls/1200/0303000a/3/default/ef9b2898e92146d29a2e926ce1107eac/1200.m3u8
呵护,https://hls.cntv.kcdnvip.com/asp/hls/1200/0303000a/3/default/3e2d88a89cd9464e89f3b4b6353db194/1200.m3u8
团结的水豚家族,https://hls.cntv.kcdnvip.com/asp/hls/1200/0303000a/3/default/51e9c38303624369a0ba257163a5528f/1200.m3u8
大力士捕鱼记,https://hls.cntv.kcdnvip.com/asp/hls/1200/0303000a/3/default/1bcefb1f860746ebbbfe7f969c3a84ea/1200.m3u8
大地骄子,https://hls.cntv.kcdnvip.com/asp/hls/1200/0303000a/3/default/b08d6ad2f22047bd93af89955db5ce46/1200.m3u8
大水獭回归的故事,https://hls.cntv.kcdnvip.com/asp/hls/1200/0303000a/3/default/0e114c18fa084fe58238307c66506675/1200.m3u8
大水獭桑丘的故事(上),https://hls.cntv.kcdnvip.com/asp/hls/1200/0303000a/3/default/ffea8bb4f0a04e53a82dab943e32bfb1/1200.m3u8
大水獭桑丘的故事(下),https://hls.cntv.kcdnvip.com/asp/hls/1200/0303000a/3/default/9934a6c232264addaf109ac76f21e7da/1200.m3u8
大猫们的世界,https://hls.cntv.kcdnvip.com/asp/hls/1200/0303000a/3/default/830375ed0f54449e8e369edc9635e329/1200.m3u8
大猫传奇,https://hls.cntv.kcdnvip.com/asp/hls/1200/0303000a/3/default/6976a5d0ae0d4426bbd94bc1dd8f44a9/1200.m3u8
大猫和邻居们(上),https://hls.cntv.kcdnvip.com/asp/hls/1200/0303000a/3/default/84359a09aab544b184a40865454e0b0a/1200.m3u8
大猫和邻居们(下),https://hls.cntv.kcdnvip.com/asp/hls/1200/0303000a/3/default/2c4bc4b10e7d408a8de9c9e3012f64ca/1200.m3u8
大猫归来,https://hls.cntv.kcdnvip.com/asp/hls/1200/0303000a/3/default/8c13b8463ee54e93a0a0ccc33dab33ef/1200.m3u8
大猫榜中榜(上),https://hls.cntv.kcdnvip.com/asp/hls/1200/0303000a/3/default/e5c95f6d2f9447e2bbb0b2bba952e062/1200.m3u8
大猫榜中榜(下),https://hls.cntv.kcdnvip.com/asp/hls/1200/0303000a/3/default/9f813ed35c264d4ea10e57516dafe5d6/1200.m3u8
大猫猎手训练营,https://hls.cntv.kcdnvip.com/asp/hls/1200/0303000a/3/default/a08d9451f00a451682973c99b503dd6a/1200.m3u8
大象与羊的快乐生活,https://hls.cntv.kcdnvip.com/asp/hls/1200/0303000a/3/default/b72e3a49fdd44f36915d6cc59aa0a113/1200.m3u8
大象与羊的神奇友情(上),https://hls.cntv.kcdnvip.com/asp/hls/1200/0303000a/3/default/7689d02607d34fdb8ce22cc479e42e91/1200.m3u8
大象与羊的神奇友情(下),https://hls.cntv.kcdnvip.com/asp/hls/1200/0303000a/3/default/8ab73d30adff4cfa8e5afda910387dfc/1200.m3u8
大象的别样生活(上),https://hls.cntv.kcdnvip.com/asp/hls/1200/0303000a/3/default/f4e6615b73ce42aa805767845425078a/1200.m3u8
大象的别样生活(下),https://hls.cntv.kcdnvip.com/asp/hls/1200/0303000a/3/default/f80446c8a43c4357af8680057ec1669f/1200.m3u8
大象的秘密生活(上),https://hls.cntv.kcdnvip.com/asp/hls/1200/0303000a/3/default/81f43884b4064750af230205752dbb63/1200.m3u8
大象的秘密生活(下),https://hls.cntv.kcdnvip.com/asp/hls/1200/0303000a/3/default/43e021f3a6dc4b6089c71afe80552fae/1200.m3u8
天生野长生命延续(上),https://hls.cntv.kcdnvip.com/asp/hls/1200/0303000a/3/default/87be5f0e1fb14d139fe696081a787914/1200.m3u8
天生野长生命延续(下),https://hls.cntv.kcdnvip.com/asp/hls/1200/0303000a/3/default/b95e26a16f664da498ef421f74ad3006/1200.m3u8
天生野长生命课程(上),https://hls.cntv.kcdnvip.com/asp/hls/1200/0303000a/3/default/95839705cfdc471aa67a09b7cfd6f52d/1200.m3u8
奇异世界的动物们2,https://hls.cntv.kcdnvip.com/asp/hls/1200/0303000a/3/default/ef3ee1bb8ff946a9adf07486709883eb/1200.m3u8
奇异世界的动物们3,https://hls.cntv.kcdnvip.com/asp/hls/1200/0303000a/3/default/efa51c5e3af04df89e68606d75333080/1200.m3u8
奇特动物的奇特遭遇(上),https://hls.cntv.kcdnvip.com/asp/hls/1200/0303000a/3/default/2b20f8ba9ae14d96b9907f59bb758595/1200.m3u8
奇特动物的奇特遭遇(下),https://hls.cntv.kcdnvip.com/asp/hls/1200/0303000a/3/default/0ebab68eda084509b18c27982ecfb660/1200.m3u8
奇迹发生的时刻,https://hls.cntv.kcdnvip.com/asp/hls/1200/0303000a/3/default/1dbbdbb87b8f410cbc0f3c742201cd7d/1200.m3u8
如履薄冰的北极熊(上),https://hls.cntv.kcdnvip.com/asp/hls/1200/0303000a/3/default/f31953326cca4b5e9c5f7e285a5cddb7/1200.m3u8
如履薄冰的北极熊(下),https://hls.cntv.kcdnvip.com/asp/hls/1200/0303000a/3/default/b6576aa2cd4e43a9a5ddc4af16695a28/1200.m3u8
家有萌宝(五),https://hls.cntv.kcdnvip.com/asp/hls/1200/0303000a/3/default/496e4c0e2de74aaf968651d447eeb12a/1200.m3u8
家有萌宝1,https://hls.cntv.kcdnvip.com/asp/hls/1200/0303000a/3/default/7c53f1554802430587ecc54b1cef1002/1200.m3u8
家有萌宝2,https://hls.cntv.kcdnvip.com/asp/hls/1200/0303000a/3/default/81f9af4e6a6f41daa48c6c0091e4d66b/1200.m3u8
家有萌宝3,https://hls.cntv.kcdnvip.com/asp/hls/1200/0303000a/3/default/fe463d857de5415daa72441ab0cdab7f/1200.m3u8
家有萌宝4,https://hls.cntv.kcdnvip.com/asp/hls/1200/0303000a/3/default/15d2240bbfc34785bfc2ab8147244466/1200.m3u8
家有萌狗,https://hls.cntv.kcdnvip.com/asp/hls/1200/0303000a/3/default/0fb39f83b1764305bd0216f15b8ab88a/1200.m3u8
小动物大猎手(上),https://hls.cntv.kcdnvip.com/asp/hls/1200/0303000a/3/default/c46a26d74f5b4da98f5c9d69f8218de0/1200.m3u8
小动物大猎手(下),https://hls.cntv.kcdnvip.com/asp/hls/1200/0303000a/3/default/ef8ad1d36d9c4515a9e04443687a7f33/1200.m3u8
小动物大英雄,https://hls.cntv.kcdnvip.com/asp/hls/1200/0303000a/3/default/27818c0197e94415946b825b2b163e22/1200.m3u8
小动物的森林童话,https://hls.cntv.kcdnvip.com/asp/hls/1200/0303000a/3/default/321727074edc4cf69b5b205111569205/1200.m3u8
小勇士闯天下,https://hls.cntv.kcdnvip.com/asp/hls/1200/0303000a/3/default/8737418de24a461f9785193bcbda0026/1200.m3u8
小熊的故事1,https://hls.cntv.kcdnvip.com/asp/hls/1200/0303000a/3/default/d3c750e3481a4ca696898875f6e6dbf1/1200.m3u8
小熊的故事2,https://hls.cntv.kcdnvip.com/asp/hls/1200/0303000a/3/default/3499a172820f47da988e5aaeb187ec29/1200.m3u8
小熊的故事3,https://hls.cntv.kcdnvip.com/asp/hls/1200/0303000a/3/default/3564b5460bea444b8712fb1cb0a59c00/1200.m3u8
小熊的梦幻森林1,https://hls.cntv.kcdnvip.com/asp/hls/1200/0303000a/3/default/b0f2b241c39c42beb732a5e73b5a9782/1200.m3u8
小熊的梦幻森林2,https://hls.cntv.kcdnvip.com/asp/hls/1200/0303000a/3/default/b2e817cee1a7417ba34f062aa919ca02/1200.m3u8
小熊的梦幻森林3,https://hls.cntv.kcdnvip.com/asp/hls/1200/0303000a/3/default/8bbcff92f2ce423bb2d822e0fb67657f/1200.m3u8
小角马历险记,https://hls.cntv.kcdnvip.com/asp/hls/1200/0303000a/3/default/b7594a5bc3d241e3a8b95eac39ebd7e9/1200.m3u8
小象和绵羊朋友(上),https://hls.cntv.kcdnvip.com/asp/hls/1200/0303000a/3/default/c69ca1ce229648ce86e97c0b86e67c58/1200.m3u8
小象和绵羊朋友(下),https://hls.cntv.kcdnvip.com/asp/hls/1200/0303000a/3/default/138e7ea321c94a86b4f939ccb00a75a9/1200.m3u8
小鼠奇遇记,https://hls.cntv.kcdnvip.com/asp/hls/1200/0303000a/3/default/9417f7c1d9f2484c901d886245892130/1200.m3u8
巨兽来了,https://hls.cntv.kcdnvip.com/asp/hls/1200/0303000a/3/default/1224d3b3e1ba410d8dc316f2f2ab1872/1200.m3u8
巨藻林的守卫者,https://hls.cntv.kcdnvip.com/asp/hls/1200/0303000a/3/default/432e7e692dc841bfaefb5e662de89bdc/1200.m3u8
彩蛇之舞,https://hls.cntv.kcdnvip.com/asp/hls/1200/0303000a/3/default/002334474c7c4b8b98bad237a7bdeb7b/1200.m3u8
情满大草原1,https://hls.cntv.kcdnvip.com/asp/hls/1200/0303000a/3/default/222ec6157bf34d8c9abd0e62ddae6ee1/1200.m3u8
情满大草原2,https://hls.cntv.kcdnvip.com/asp/hls/1200/0303000a/3/default/8200031edc9f434583d9b3f738ac4448/1200.m3u8
情满大草原3,https://hls.cntv.kcdnvip.com/asp/hls/1200/0303000a/3/default/0ab9b80f79884e22b6390b2deefdc571/1200.m3u8
打造一只超级猫,https://hls.cntv.kcdnvip.com/asp/hls/1200/0303000a/3/default/ba966901198844d09399a354e203e6cb/1200.m3u8
抢滩勇士(下),https://hls.cntv.kcdnvip.com/asp/hls/1200/0303000a/3/default/0d4351715b27425d87a926b964b6cdaf/1200.m3u8
捕猎刹那间1,https://hls.cntv.kcdnvip.com/asp/hls/1200/0303000a/3/default/6b222a92e2b9484f86121a558915ddb5/1200.m3u8
捕猎刹那间2,https://hls.cntv.kcdnvip.com/asp/hls/1200/0303000a/3/default/eb2cf087eae64ff9a40258bbbc1a92ba/1200.m3u8
捕猎刹那间3,https://hls.cntv.kcdnvip.com/asp/hls/1200/0303000a/3/default/799ea1ddb3db403484fe2421d4831287/1200.m3u8
捕食一瞬间(上),https://hls.cntv.kcdnvip.com/asp/hls/1200/0303000a/3/default/426cfdd1924a452b863c0cd52af6436b/1200.m3u8
捕食一瞬间(下),https://hls.cntv.kcdnvip.com/asp/hls/1200/0303000a/3/default/b66704d4d4aa4ea7bab6e6ef673568b3/1200.m3u8
捕食奇谋(上),https://hls.cntv.kcdnvip.com/asp/hls/1200/0303000a/3/default/543fa61893394cc48d2802207c8a51e8/1200.m3u8
捕食奇谋(下),https://hls.cntv.kcdnvip.com/asp/hls/1200/0303000a/3/default/05ba8dcc7a224442a58f6d6f86885d25/1200.m3u8
捕食者大观,https://hls.cntv.kcdnvip.com/asp/hls/1200/0303000a/3/default/d19e46abe2754e2985715a147e653626/1200.m3u8
捕食者身体构造,https://hls.cntv.kcdnvip.com/asp/hls/1200/0303000a/3/default/83901acd0fed408f904a9b554c8e16ef/1200.m3u8
捕食者追猎现场(上),https://hls.cntv.kcdnvip.com/asp/hls/1200/0303000a/3/default/853b68324c2e4718ad08298aaed459b7/1200.m3u8
捕食者追猎现场(下),https://hls.cntv.kcdnvip.com/asp/hls/1200/0303000a/3/default/6016b09920a7447eb798f3f891f52bad/1200.m3u8
探秘冰上的北极熊(上),https://hls.cntv.kcdnvip.com/asp/hls/1200/0303000a/3/default/6a74d01391d849849c7391b2466f3752/1200.m3u8
探秘冰上的北极熊(下),https://hls.cntv.kcdnvip.com/asp/hls/1200/0303000a/3/default/509e924ad47e422984af226b26236bf6/1200.m3u8
探秘雨林利爪族(上),https://hls.cntv.kcdnvip.com/asp/hls/1200/0303000a/3/default/dc83b3fe7f874e33959bdbf034e6451c/1200.m3u8
探秘雨林利爪族(下),https://hls.cntv.kcdnvip.com/asp/hls/1200/0303000a/3/default/5a8fd3e4e8ba4ca5b62f1b90ae9c3640/1200.m3u8
新狮王诞生记,https://hls.cntv.kcdnvip.com/asp/hls/1200/0303000a/3/default/5e156f1734234e17ab0f6f87f2e7491b/1200.m3u8
旱季冒险故事,https://hls.cntv.kcdnvip.com/asp/hls/1200/0303000a/3/default/ac505ca5d2d5469eb21448c300a8c16c/1200.m3u8
旱季极限生存战,https://hls.cntv.kcdnvip.com/asp/hls/1200/0303000a/3/default/1b750e952abb452c9f77d44f8d8bae17/1200.m3u8
旱季生存攻略,https://hls.cntv.kcdnvip.com/asp/hls/1200/0303000a/3/default/3f34548881664dd6afb01ccdcb677a5d/1200.m3u8
有一只美丽的大水獭,https://hls.cntv.kcdnvip.com/asp/hls/1200/0303000a/3/default/f1ddaab95ca9475da4cd97907cef8e96/1200.m3u8
来到这个美丽的世界(上),https://hls.cntv.kcdnvip.com/asp/hls/1200/0303000a/3/default/003d910853de498299eb47d7d8a2eedf/1200.m3u8
来到这个美丽的世界(下),https://hls.cntv.kcdnvip.com/asp/hls/1200/0303000a/3/default/9323ea96cf6a47afaf798fca6d9411e6/1200.m3u8
林间潜伏,https://hls.cntv.kcdnvip.com/asp/hls/1200/0303000a/3/default/922b142fef9443218be5eaf44df0b397/1200.m3u8
棋逢对手,https://hls.cntv.kcdnvip.com/asp/hls/1200/0303000a/3/default/3d515f3011c64797ae15bf36c639cb49/1200.m3u8
棕熊把守的水上要塞(上),https://hls.cntv.kcdnvip.com/asp/hls/1200/0303000a/3/default/50590d053a2245428391323902e07d0e/1200.m3u8
棕熊把守的水上要塞(下),https://hls.cntv.kcdnvip.com/asp/hls/1200/0303000a/3/default/bb2341e42865439eaed4502fcc736ea5/1200.m3u8
棕熊捕鱼季(上),https://hls.cntv.kcdnvip.com/asp/hls/1200/0303000a/3/default/1ef91cb6079d46ccb9a62f046739d5c8/1200.m3u8
棕熊的捕鱼生活(上),https://hls.cntv.kcdnvip.com/asp/hls/1200/0303000a/3/default/388d46918ea34570a3fed5f5ceb393ee/1200.m3u8
棕熊的捕鱼生活(下),https://hls.cntv.kcdnvip.com/asp/hls/1200/0303000a/3/default/09def25492254217aba438e7403741e2/1200.m3u8
森林是我家1,https://hls.cntv.kcdnvip.com/asp/hls/1200/0303000a/3/default/c105c056c3f744baa49ce0b8b39c1f3b/1200.m3u8
森林是我家2,https://hls.cntv.kcdnvip.com/asp/hls/1200/0303000a/3/default/63bb582977074c57a127eaca9d954154/1200.m3u8
森林是我家3,https://hls.cntv.kcdnvip.com/asp/hls/1200/0303000a/3/default/14b683f0668f404a9bb8ea74d14c5c8e/1200.m3u8
植物王国漫游记,https://hls.cntv.kcdnvip.com/asp/hls/1200/0303000a/3/default/508b9a0c8be74d89a431b24114c91faa/1200.m3u8
植物王国漫游记,https://hls.cntv.kcdnvip.com/asp/hls/1200/0303000a/3/default/fa3ad43978014ff4b64b4bff8914116c/1200.m3u8
母爱之路,https://hls.cntv.kcdnvip.com/asp/hls/1200/0303000a/3/default/115d481467e04333be047fcebf482b3e/1200.m3u8
母爱的呵护,https://hls.cntv.kcdnvip.com/asp/hls/1200/0303000a/3/default/a6ec4d0475e1453e8ede023e346c2350/1200.m3u8
水牛与狮子的争战,https://hls.cntv.kcdnvip.com/asp/hls/1200/0303000a/3/default/d1e0dc98b1374b43b157bf82eebc6d09/1200.m3u8
水牛向前冲(上),https://hls.cntv.kcdnvip.com/asp/hls/1200/0303000a/3/default/2f05eb49b3a049c88a848a1104dc856f/1200.m3u8
水牛向前冲(下),https://hls.cntv.kcdnvip.com/asp/hls/1200/0303000a/3/default/bda4b441c07e40cb8a418381d0506c80/1200.m3u8
水獭奇缘,https://hls.cntv.kcdnvip.com/asp/hls/1200/0303000a/3/default/da2d147b25404552b118111dd52d7a25/1200.m3u8
水豚爱湿地,https://hls.cntv.kcdnvip.com/asp/hls/1200/0303000a/3/default/c7488fc3bed341ad827c054d3ec7e62d/1200.m3u8
沙滩上的盛宴,https://hls.cntv.kcdnvip.com/asp/hls/1200/0303000a/3/default/31e38a0232734780842a9031072c2073/1200.m3u8
河里的捕食大师(上),https://hls.cntv.kcdnvip.com/asp/hls/1200/0303000a/3/default/bf70f8033ec049f5be4698c3497d3868/1200.m3u8
河里的捕食大师(下),https://hls.cntv.kcdnvip.com/asp/hls/1200/0303000a/3/default/040c050908a340238dacd1ac86694543/1200.m3u8
河龙王出海,https://hls.cntv.kcdnvip.com/asp/hls/1200/0303000a/3/default/f352ba97a41146279f5d250cc8c670bb/1200.m3u8
海底生存战,https://hls.cntv.kcdnvip.com/asp/hls/1200/0303000a/3/default/20225ac33ef7408e8c7040cb39d6a595/1200.m3u8
海洋宫殿的守护者,https://hls.cntv.kcdnvip.com/asp/hls/1200/0303000a/3/default/86c73156b8ad405180ed252940b2155c/1200.m3u8
海洋猎手,https://hls.cntv.kcdnvip.com/asp/hls/1200/0303000a/3/default/f98ebc30517647839c09fb17e0dbea04/1200.m3u8
海洋里的神奇家族(上),https://hls.cntv.kcdnvip.com/asp/hls/1200/0303000a/3/default/ef8e561920694e4a81cd1933314610cb/1200.m3u8
海洋里的神奇家族(下),https://hls.cntv.kcdnvip.com/asp/hls/1200/0303000a/3/default/5775e1919dca48169eb22986804455b3/1200.m3u8
海洋里的神奇家族(下),https://hls.cntv.kcdnvip.com/asp/hls/1200/0303000a/3/default/a68ae907dc7e4783af8d9547a1926435/1200.m3u8
海的呼唤,https://hls.cntv.kcdnvip.com/asp/hls/1200/0303000a/3/default/ee6a46541b624388a01ba2fc14c34079/1200.m3u8
海豚的奇妙生活(上),https://hls.cntv.kcdnvip.com/asp/hls/1200/0303000a/3/default/30385b1caa214c9a8c6c53ef69ce7e18/1200.m3u8
海豚的奇妙生活(下),https://hls.cntv.kcdnvip.com/asp/hls/1200/0303000a/3/default/b61b0646586142aca08c2e8d333c385b/1200.m3u8
海鬣蜥的幸福生活,https://hls.cntv.kcdnvip.com/asp/hls/1200/0303000a/3/default/a66f6344f9cc4ed3b42b06e678124d0f/1200.m3u8
海鬣蜥的故事,https://hls.cntv.kcdnvip.com/asp/hls/1200/0303000a/3/default/d19635c3f57f4e538e078569ac796fd6/1200.m3u8
深海潜伏的猎手,https://hls.cntv.kcdnvip.com/asp/hls/1200/0303000a/3/default/f1a00ae54f3b428bac1ed388ced1ce70/1200.m3u8
湿地之争豹与鳄鱼,https://hls.cntv.kcdnvip.com/asp/hls/1200/0303000a/3/default/1fe1e5df7c9d4b38a0a855e092a7b6c1/1200.m3u8
湿地小萌兽,https://hls.cntv.kcdnvip.com/asp/hls/1200/0303000a/3/default/00892961ec6546ae8c78e96d1dd0874a/1200.m3u8
湿地有萌兽,https://hls.cntv.kcdnvip.com/asp/hls/1200/0303000a/3/default/e3c31d84ec7e4035a8501db9df1d140b/1200.m3u8
潜水大师的岛上生活(上),https://hls.cntv.kcdnvip.com/asp/hls/1200/0303000a/3/default/cd88344f084b47c593388fdf6a8c443f/1200.m3u8
潜水大师的岛上生活(下),https://hls.cntv.kcdnvip.com/asp/hls/1200/0303000a/3/default/76332b54d8074b0fada76d081570d621/1200.m3u8
熊在旅途(上),https://hls.cntv.kcdnvip.com/asp/hls/1200/0303000a/3/default/b0b95c35bce84072b10ad0b82cf83951/1200.m3u8
熊在旅途(下),https://hls.cntv.kcdnvip.com/asp/hls/1200/0303000a/3/default/9dc810bc8a3b426f88ac8c998f9e5332/1200.m3u8
熊的王国,https://hls.cntv.kcdnvip.com/asp/hls/1200/0303000a/3/default/ade1b31d23694fba82c9c4f07dba3267/1200.m3u8
爱与狗相伴,https://hls.cntv.kcdnvip.com/asp/hls/1200/0303000a/3/default/530a12d274184293802f51c38603f75a/1200.m3u8
爱你我的宝宝(上),https://hls.cntv.kcdnvip.com/asp/hls/1200/0303000a/3/default/08f97ee21d884d0486c37ae6fb7c5683/1200.m3u8
爱你我的宝宝(下),https://hls.cntv.kcdnvip.com/asp/hls/1200/0303000a/3/default/f16dbba3ddf84af2a0ff1521448ee4da/1200.m3u8
爱吃鱼的棕熊,https://hls.cntv.kcdnvip.com/asp/hls/1200/0303000a/3/default/79c7bb4495f74ca698f3111a6f7ba567/1200.m3u8
爱的奉献1,https://hls.cntv.kcdnvip.com/asp/hls/1200/0303000a/3/default/5b062ba2cd854ba993166d277af8a40d/1200.m3u8
爱的奉献2,https://hls.cntv.kcdnvip.com/asp/hls/1200/0303000a/3/default/80cf935aef484e15aa31b8fbd565be39/1200.m3u8
爱的奉献3,https://hls.cntv.kcdnvip.com/asp/hls/1200/0303000a/3/default/aee1f28cf3e94a5fa7468206d4f417ed/1200.m3u8
狮口余生的小角马(上),https://hls.cntv.kcdnvip.com/asp/hls/1200/0303000a/3/default/7cfc0fe7981b4022b69c3e1cb7317b77/1200.m3u8
狮子和鬣狗(上),https://hls.cntv.kcdnvip.com/asp/hls/1200/0303000a/3/default/6ca061c3b9184e7aa46cef1ead911099/1200.m3u8
狮子和鬣狗(下),https://hls.cntv.kcdnvip.com/asp/hls/1200/0303000a/3/default/e5ea8f4b0cbd4d7aa779b9dfed5a9448/1200.m3u8
狮子捕猎计划,https://hls.cntv.kcdnvip.com/asp/hls/1200/0303000a/3/default/6f2b58a05add4e2a9907ba370473332a/1200.m3u8
狮子的荣耀回归之路1,https://hls.cntv.kcdnvip.com/asp/hls/1200/0303000a/3/default/bec9f485672345339c49bc345edf9fd5/1200.m3u8
狮子的荣耀回归之路2,https://hls.cntv.kcdnvip.com/asp/hls/1200/0303000a/3/default/bdb438a81a20403db85b6e9d12707f2d/1200.m3u8
狮子的荣耀回归之路3,https://hls.cntv.kcdnvip.com/asp/hls/1200/0303000a/3/default/50ef8c8037da4735a9cb9288f45878b0/1200.m3u8
狮子的荣耀回归之路4,https://hls.cntv.kcdnvip.com/asp/hls/1200/0303000a/3/default/2fea6699d56f4274b5ab5260b016fda2/1200.m3u8
狮族迷踪1,https://hls.cntv.kcdnvip.com/asp/hls/1200/0303000a/3/default/801151749824437aaa0afa87bfcf7abf/1200.m3u8
狮族迷踪2,https://hls.cntv.kcdnvip.com/asp/hls/1200/0303000a/3/default/b4ff6041c00246af815b679a7ee6c4a6/1200.m3u8
狮族迷踪3,https://hls.cntv.kcdnvip.com/asp/hls/1200/0303000a/3/default/5e01c3ff2a5844ab80643ce67ba29026/1200.m3u8
狮群的家园生活,https://hls.cntv.kcdnvip.com/asp/hls/1200/0303000a/3/default/cad939a2eb714f4b9d37c4185674d50b/1200.m3u8
狮群的荣耀,https://hls.cntv.kcdnvip.com/asp/hls/1200/0303000a/3/default/84b850056589475f80528cf28b9b840a/1200.m3u8
猎手求生记,https://hls.cntv.kcdnvip.com/asp/hls/1200/0303000a/3/default/5bc79939a4804f199e606cc08b1bb416/1200.m3u8
猎手生存攻略,https://hls.cntv.kcdnvip.com/asp/hls/1200/0303000a/3/default/703310100a944d78a5e6838f80920cd6/1200.m3u8
猎豹妈妈奋斗记,https://hls.cntv.kcdnvip.com/asp/hls/1200/0303000a/3/default/6b10d45dafaa47f4a3c3444946c074c9/1200.m3u8
猎豹妈妈育儿记(上),https://hls.cntv.kcdnvip.com/asp/hls/1200/0303000a/3/default/dba9097ef49e42acb2c6597e04551fbc/1200.m3u8
猎豹妈妈育儿记(下),https://hls.cntv.kcdnvip.com/asp/hls/1200/0303000a/3/default/fca702ad83284ff0a3b883a735913060/1200.m3u8
猎食计划1,https://hls.cntv.kcdnvip.com/asp/hls/1200/0303000a/3/default/cd732e06e7934a3daef6483c6be1afca/1200.m3u8
猎食计划2,https://hls.cntv.kcdnvip.com/asp/hls/1200/0303000a/3/default/497afdb07e92409fb8cb5c0249dfe6d7/1200.m3u8
猎食计划3,https://hls.cntv.kcdnvip.com/asp/hls/1200/0303000a/3/default/947b6c076a0c4a3ca72a1274731feb66/1200.m3u8
猛虎柔情,https://hls.cntv.kcdnvip.com/asp/hls/1200/0303000a/3/default/dd3be5a89c1542d3bb4db0953a1430c6/1200.m3u8
猫科动物谁为王者(上),https://hls.cntv.kcdnvip.com/asp/hls/1200/0303000a/3/default/17c3860b26c14110a740dfa49785a1bd/1200.m3u8
猫科动物谁为王者(下),https://hls.cntv.kcdnvip.com/asp/hls/1200/0303000a/3/default/1cbb873dc7474315b86788e9f657534a/1200.m3u8
猴子的智慧,https://hls.cntv.kcdnvip.com/asp/hls/1200/0303000a/3/default/ef01d6b79fe74daf9bd63ff0469713d2/1200.m3u8
生存极限大挑战,https://hls.cntv.kcdnvip.com/asp/hls/1200/0303000a/3/default/9dc7b6dcacde4fad9467c4d2c61da3d1/1200.m3u8
生存的望(上),https://hls.cntv.kcdnvip.com/asp/hls/1200/0303000a/3/default/fd00ce388b994d7195dbefc1beb5726b/1200.m3u8
生存的望(下),https://hls.cntv.kcdnvip.com/asp/hls/1200/0303000a/3/default/d9765b81ca83444a9ba7b6a335b2466a/1200.m3u8
疯狂的爱,https://hls.cntv.kcdnvip.com/asp/hls/1200/0303000a/3/default/35b481b5e27a4fa2b2c03f42596b68ba/1200.m3u8
白狮归来1,https://hls.cntv.kcdnvip.com/asp/hls/1200/0303000a/3/default/199ab14f5ba44a208371a3eef0029a09/1200.m3u8
白狮归来2,https://hls.cntv.kcdnvip.com/asp/hls/1200/0303000a/3/default/e3b36e52d0bc4a0a851a1bd3fa181365/1200.m3u8
白狮归来4,https://hls.cntv.kcdnvip.com/asp/hls/1200/0303000a/3/default/ffda5e0584b64e0d9dc3cc43783900cf/1200.m3u8
白狮的荒野故事(上),https://hls.cntv.kcdnvip.com/asp/hls/1200/0303000a/3/default/649a0df6bc394fde973b2e8ef12ef3d6/1200.m3u8
白狮的荒野故事(下),https://hls.cntv.kcdnvip.com/asp/hls/1200/0303000a/3/default/1eee9eda1dec4c8da256c6b2ef70114a/1200.m3u8
盛宴的旅程,https://hls.cntv.kcdnvip.com/asp/hls/1200/0303000a/3/default/fbcd61c318c34e08854c3911086a7406/1200.m3u8
看得见的远方1,https://hls.cntv.kcdnvip.com/asp/hls/1200/0303000a/3/default/f532415139fb4dc3a0e9de757d535d6a/1200.m3u8
看得见的远方3,https://hls.cntv.kcdnvip.com/asp/hls/1200/0303000a/3/default/255a802e924a44f381318db92a32431e/1200.m3u8
神秘的眼睛王蛇,https://hls.cntv.kcdnvip.com/asp/hls/1200/0303000a/3/default/cb73d16a9e02484ab4708b0268b63bcf/1200.m3u8
秘境之蛇,https://hls.cntv.kcdnvip.com/asp/hls/1200/0303000a/3/default/c4e45ac9dd2642b6ae9fb95b470224a9/1200.m3u8
秘境里的动物王国,https://hls.cntv.kcdnvip.com/asp/hls/1200/0303000a/3/default/bb36368ba24f47ed88d4204fd3db5483/1200.m3u8
秘境里的奇观,https://hls.cntv.kcdnvip.com/asp/hls/1200/0303000a/3/default/38ba9675721d4259b3dd327b7e212a39/1200.m3u8
穿越森林的迷宫,https://hls.cntv.kcdnvip.com/asp/hls/1200/0303000a/3/default/52bf33932d1646529b95b044f187d4d3/1200.m3u8
穿越狮子的领地,https://hls.cntv.kcdnvip.com/asp/hls/1200/0303000a/3/default/ea08ccce272f4b7984eb665a97bab536/1200.m3u8
童话般的雨林(上),https://hls.cntv.kcdnvip.com/asp/hls/1200/0303000a/3/default/a1672972c0b742239237bb1686ba0745/1200.m3u8
童话般的雨林(下),https://hls.cntv.kcdnvip.com/asp/hls/1200/0303000a/3/default/8e99e3c9f38340a98fb79b36ab1c863f/1200.m3u8
绽放的生命(五),https://hls.cntv.kcdnvip.com/asp/hls/1200/0303000a/3/default/d2f3f0f3b4c242b4983ee62034f85608/1200.m3u8
绽放的生命1,https://hls.cntv.kcdnvip.com/asp/hls/1200/0303000a/3/default/87145268893a47cd8fc9cda530eee111/1200.m3u8
绽放的生命2,https://hls.cntv.kcdnvip.com/asp/hls/1200/0303000a/3/default/7b6ed77c03224d298a72a8311fcf10a7/1200.m3u8
绽放的生命3,https://hls.cntv.kcdnvip.com/asp/hls/1200/0303000a/3/default/aea0ef5ea21c40dea948d723d823a5fb/1200.m3u8
绽放的生命4,https://hls.cntv.kcdnvip.com/asp/hls/1200/0303000a/3/default/fbb3d1d6ae37458e84f574881778ac7c/1200.m3u8
美食的,https://hls.cntv.kcdnvip.com/asp/hls/1200/0303000a/3/default/9debd40527e34471bdfbe1212aa198d7/1200.m3u8
耀眼的白狮家族1,https://hls.cntv.kcdnvip.com/asp/hls/1200/0303000a/3/default/07c3395ee5da4f789937372657ab980a/1200.m3u8
耀眼的白狮家族2,https://hls.cntv.kcdnvip.com/asp/hls/1200/0303000a/3/default/3989c3f3416745438c4bc20abeae51ae/1200.m3u8
耀眼的白狮家族3,https://hls.cntv.kcdnvip.com/asp/hls/1200/0303000a/3/default/e0efcf1181234f2dabef87db65bcdec0/1200.m3u8
聪明的建筑师,https://hls.cntv.kcdnvip.com/asp/hls/1200/0303000a/3/default/d04a550f19ac42869d7b4d3f5f9246b2/1200.m3u8
自然界奥运冠军,https://hls.cntv.kcdnvip.com/asp/hls/1200/0303000a/3/default/7b968e9b50984d598d96c6fc5af40b4c/1200.m3u8
花豹柔情,https://hls.cntv.kcdnvip.com/asp/hls/1200/0303000a/3/default/96712ee30d144f21a0566f3c1b2fbc56/1200.m3u8
草原三巨头,https://hls.cntv.kcdnvip.com/asp/hls/1200/0303000a/3/default/2bdc779138bb4235b20a5155e40fa7c8/1200.m3u8
草原上的大猫王国,https://hls.cntv.kcdnvip.com/asp/hls/1200/0303000a/3/default/e98eed67d3164ec0a2f5a9215693f7a8/1200.m3u8
草原之王上战场,https://hls.cntv.kcdnvip.com/asp/hls/1200/0303000a/3/default/bfb6917b29ea413c89e8ed8fa6e2a6ab/1200.m3u8
草原狮子的戏剧舞台(上),https://hls.cntv.kcdnvip.com/asp/hls/1200/0303000a/3/default/93fde1242f50415faa6da2dd5da9105b/1200.m3u8
草原狮子的戏剧舞台(下),https://hls.cntv.kcdnvip.com/asp/hls/1200/0303000a/3/default/c5b600bcb2c44c44b56e9afdb5243a07/1200.m3u8
荒野里的呼唤,https://hls.cntv.kcdnvip.com/asp/hls/1200/0303000a/3/default/de55f16b130042b19472ef89e184d719/1200.m3u8
萌狗诞生记,https://hls.cntv.kcdnvip.com/asp/hls/1200/0303000a/3/default/0f68b16f162c493c8d82a57135f16da0/1200.m3u8
虎妈妈爱(上),https://hls.cntv.kcdnvip.com/asp/hls/1200/0303000a/3/default/6855ee238c9c4e9893ff342b7dbe5a2b/1200.m3u8
蛇类大观园,https://hls.cntv.kcdnvip.com/asp/hls/1200/0303000a/3/default/414f84230ced4696af656a112385b72c/1200.m3u8
蜥蜴安身火山岛(上),https://hls.cntv.kcdnvip.com/asp/hls/1200/0303000a/3/default/0c3c388b10ad4cf78f312c6d6620f1e0/1200.m3u8
蜥蜴安身火山岛(下),https://hls.cntv.kcdnvip.com/asp/hls/1200/0303000a/3/default/5043f9b708fe443fb9207e26da903218/1200.m3u8
螃蟹岛海战(上),https://hls.cntv.kcdnvip.com/asp/hls/1200/0303000a/3/default/d0137f4e9adc44a7856c7288fe8ca3d2/1200.m3u8
螃蟹岛海战(下),https://hls.cntv.kcdnvip.com/asp/hls/1200/0303000a/3/default/d784a777f3dd42b3b73be06858b71197/1200.m3u8
被母狮拯救的小角马(上),https://hls.cntv.kcdnvip.com/asp/hls/1200/0303000a/3/default/ba95e1a983584925887c11306f83ccf8/1200.m3u8
被母狮拯救的小角马(下),https://hls.cntv.kcdnvip.com/asp/hls/1200/0303000a/3/default/8e655ba0c751468b9d18f3020133571f/1200.m3u8
角马幸运儿(上),https://hls.cntv.kcdnvip.com/asp/hls/1200/0303000a/3/default/40c883e3f4c441d08422ce49aec61644/1200.m3u8
角马幸运儿(下),https://hls.cntv.kcdnvip.com/asp/hls/1200/0303000a/3/default/67b7d65e3b3e4b509e314e65937ef369/1200.m3u8
豹妈当家(上),https://hls.cntv.kcdnvip.com/asp/hls/1200/0303000a/3/default/984cda8d35d544658fbd96b417bdea1f/1200.m3u8
豹妈当家(下),https://hls.cntv.kcdnvip.com/asp/hls/1200/0303000a/3/default/33343249dabd4dcfaeb64da7ab7fe061/1200.m3u8
走出包围圈,https://hls.cntv.kcdnvip.com/asp/hls/1200/0303000a/3/default/38fc4f8e379445aeab6098b9ece0aa2a/1200.m3u8
走进狗的世界,https://hls.cntv.kcdnvip.com/asp/hls/1200/0303000a/3/default/25c049869a174f5fa5806e57a2c376bd/1200.m3u8
超凡猎手,https://hls.cntv.kcdnvip.com/asp/hls/1200/0303000a/3/default/77d5ca903f0948ad8c5ec57e49b3cc95/1200.m3u8
超凡猎手,https://hls.cntv.kcdnvip.com/asp/hls/1200/0303000a/3/default/8bd3d27314fd431a84d8443c2fdc8b02/1200.m3u8
超级狮子家族,https://hls.cntv.kcdnvip.com/asp/hls/1200/0303000a/3/default/f689bc846e93479898d8dcbdffad9744/1200.m3u8
超级狮子群的故事(上),https://hls.cntv.kcdnvip.com/asp/hls/1200/0303000a/3/default/1c0a25fcb5564e02a435ec33fbdc4888/1200.m3u8
超级狮子群的故事(下),https://hls.cntv.kcdnvip.com/asp/hls/1200/0303000a/3/default/8986640e9a3f43be9ffe66f0feb41f72/1200.m3u8
超级猫行动,https://hls.cntv.kcdnvip.com/asp/hls/1200/0303000a/3/default/8d952bbdd6cc4e6abf9df153bc18e927/1200.m3u8
足球超级猎食者(上),https://hls.cntv.kcdnvip.com/asp/hls/1200/0303000a/3/default/4d0dc6b22b8e48efa4a984ec990a4faf/1200.m3u8
足球超级猎食者(下),https://hls.cntv.kcdnvip.com/asp/hls/1200/0303000a/3/default/d7aec4db75da469d915a5dd7a0fb3d70/1200.m3u8
辣妈带娃记,https://hls.cntv.kcdnvip.com/asp/hls/1200/0303000a/3/default/8fd303fc08454c3497673fa40ced6284/1200.m3u8
进化中的北极熊,https://hls.cntv.kcdnvip.com/asp/hls/1200/0303000a/3/default/caf316bd282e4bfdbbd36bac2514c428/1200.m3u8
追踪兽王,https://hls.cntv.kcdnvip.com/asp/hls/1200/0303000a/3/default/93dfcb01bd634370bc211fc7484854ec/1200.m3u8
追逐的游戏,https://hls.cntv.kcdnvip.com/asp/hls/1200/0303000a/3/default/34459ad5d340461daab2f453d485833d/1200.m3u8
速度与生存(五),https://hls.cntv.kcdnvip.com/asp/hls/1200/0303000a/3/default/9953caf767b04ae782540c8ac53eaaa4/1200.m3u8
速度与生存1,https://hls.cntv.kcdnvip.com/asp/hls/1200/0303000a/3/default/1cc83ec8b9b44794b63e1a249b9fb2fb/1200.m3u8
速度与生存2,https://hls.cntv.kcdnvip.com/asp/hls/1200/0303000a/3/default/31abc302978f45df9c4e8aaa3972d599/1200.m3u8
速度与生存3,https://hls.cntv.kcdnvip.com/asp/hls/1200/0303000a/3/default/570d9ce8d39d4ede9a26ae6de4d28f54/1200.m3u8
速度与生存4,https://hls.cntv.kcdnvip.com/asp/hls/1200/0303000a/3/default/f37b1966271f4527a581ed9275c34f7c/1200.m3u8
速度大比拼(上),https://hls.cntv.kcdnvip.com/asp/hls/1200/0303000a/3/default/2746acf40172425180162fc3a316416b/1200.m3u8
速度大比拼(下),https://hls.cntv.kcdnvip.com/asp/hls/1200/0303000a/3/default/d2e5439b8a9c4b53970e5c3b0eee9abd/1200.m3u8
遨游海底两万里,https://hls.cntv.kcdnvip.com/asp/hls/1200/0303000a/3/default/31d0363fb3714ce4b916790aa7da22db/1200.m3u8
都市里的丛林(上),https://hls.cntv.kcdnvip.com/asp/hls/1200/0303000a/3/default/2e2e0e875d624196af0488f6b07bb2e0/1200.m3u8
都市里的丛林(下),https://hls.cntv.kcdnvip.com/asp/hls/1200/0303000a/3/default/9f79dac568844de8813e682b280efb4f/1200.m3u8
都市里的野生家园(下),https://hls.cntv.kcdnvip.com/asp/hls/1200/0303000a/3/default/06ca0e5a61624f11987ba99dc9a8ed64/1200.m3u8
野狗家族传世之爱,https://hls.cntv.kcdnvip.com/asp/hls/1200/0303000a/3/default/dc4007615a124e29827b16bec3885db5/1200.m3u8
野生世界竞技场(上),https://hls.cntv.kcdnvip.com/asp/hls/1200/0303000a/3/default/11ac06bbb4f0426fbc4c7b3bfd864b3f/1200.m3u8
野生世界竞技场(下),https://hls.cntv.kcdnvip.com/asp/hls/1200/0303000a/3/default/bf683b66c36343599bcad10516c58274/1200.m3u8
野生白狮(上),https://hls.cntv.kcdnvip.com/asp/hls/1200/0303000a/3/default/a9a5e806d97d41f5827532f1cb3f9afa/1200.m3u8
野生白狮(下),https://hls.cntv.kcdnvip.com/asp/hls/1200/0303000a/3/default/1e405a3890d3497d80df5351ad30f169/1200.m3u8
野生白狮(中),https://hls.cntv.kcdnvip.com/asp/hls/1200/0303000a/3/default/aa5594a7d44b42768d0b4f2fa3e3651d/1200.m3u8
金豺夫妇的故事,https://hls.cntv.kcdnvip.com/asp/hls/1200/0303000a/3/default/5b71afacb8eb442d9d4a5844d3ceca15/1200.m3u8
镜头里的真相1,https://hls.cntv.kcdnvip.com/asp/hls/1200/0303000a/3/default/df70034b3a4243bd888d18b8b877787d/1200.m3u8
险境求生,https://hls.cntv.kcdnvip.com/asp/hls/1200/0303000a/3/default/3f41478fa1f24606bc1bad4725df7b59/1200.m3u8
险境求生的小河马(上),https://hls.cntv.kcdnvip.com/asp/hls/1200/0303000a/3/default/4b24374adc24487db8c9d5ac5d037079/1200.m3u8
险境求生的小河马(下),https://hls.cntv.kcdnvip.com/asp/hls/1200/0303000a/3/default/5c22e195021d49b8bc5868147fdc3139/1200.m3u8
隐秘王国里的奇迹1,https://hls.cntv.kcdnvip.com/asp/hls/1200/0303000a/3/default/e2094de08292490db17c29ec299b4bc2/1200.m3u8
隐秘王国里的奇迹2,https://hls.cntv.kcdnvip.com/asp/hls/1200/0303000a/3/default/1cee8d6ac393418e887420a6e1d54b6e/1200.m3u8
隐秘王国里的奇迹3,https://hls.cntv.kcdnvip.com/asp/hls/1200/0303000a/3/default/2fe654a3cadf4838bb34ea18441378e8/1200.m3u8
隐秘王国里的奇迹4,https://hls.cntv.kcdnvip.com/asp/hls/1200/0303000a/3/default/953467196a854ed786f7e3521579f1f6/1200.m3u8
隐秘的海鬣蜥王国,https://hls.cntv.kcdnvip.com/asp/hls/1200/0303000a/3/default/b7af80d20f06401989879c44eaf865e8/1200.m3u8
雄风再起,https://hls.cntv.kcdnvip.com/asp/hls/1200/0303000a/3/default/b9176a8a35c94c37ade29708eed40190/1200.m3u8
雨季狮踪,https://hls.cntv.kcdnvip.com/asp/hls/1200/0303000a/3/default/c1af227765174580bb3ad5c641f4dfd1/1200.m3u8
雨林守护的秘密(上),https://hls.cntv.kcdnvip.com/asp/hls/1200/0303000a/3/default/18aecd7b1b064f3692f80ce6906895d5/1200.m3u8
雨林守护的秘密(下),https://hls.cntv.kcdnvip.com/asp/hls/1200/0303000a/3/default/084be96dbd124ac499afc25eb1e4d63d/1200.m3u8
雪鸮的生存之舞,https://hls.cntv.kcdnvip.com/asp/hls/1200/0303000a/3/default/722362cb57a74028804e0413141a1866/1200.m3u8
雪鸮的风中芭蕾,https://hls.cntv.kcdnvip.com/asp/hls/1200/0303000a/3/default/4ee145f174a8464fb624c4ae62992b1c/1200.m3u8
非同一般的友谊,https://hls.cntv.kcdnvip.com/asp/hls/1200/0303000a/3/default/fc5b68979baa47e6ab90db7e78b43364/1200.m3u8
非洲水牛战狮群(上),https://hls.cntv.kcdnvip.com/asp/hls/1200/0303000a/3/default/945ab75be37f46c984dade1efb742b00/1200.m3u8
非洲水牛战狮群(下),https://hls.cntv.kcdnvip.com/asp/hls/1200/0303000a/3/default/76d3b3c55eaf44b198ceb0f456f41416/1200.m3u8
非洲野放计划2,https://hls.cntv.kcdnvip.com/asp/hls/1200/0303000a/3/default/21ff76c2151743f983d8f67d3cc7231d/1200.m3u8
非洲野放计划3,https://hls.cntv.kcdnvip.com/asp/hls/1200/0303000a/3/default/234631821d1343b086ed272be364d861/1200.m3u8
非洲野放计划4,https://hls.cntv.kcdnvip.com/asp/hls/1200/0303000a/3/default/28f6148101924fadb0f1cab6017801fe/1200.m3u8
非洲野狗家族,https://hls.cntv.kcdnvip.com/asp/hls/1200/0303000a/3/default/2e64ec647a314b74b27ebc7f6bb985f2/1200.m3u8
领养一只宠物狗,https://hls.cntv.kcdnvip.com/asp/hls/1200/0303000a/3/default/ec7ccf71d6544387afbfc956f4c29ceb/1200.m3u8
高个子幸运儿,https://hls.cntv.kcdnvip.com/asp/hls/1200/0303000a/3/default/0ea3dbe589a34258b6109229223de234/1200.m3u8
鬣蜥生存攻略,https://hls.cntv.kcdnvip.com/asp/hls/1200/0303000a/3/default/ae22dffaf28f496584fc581ab72fab9c/1200.m3u8
鳄鱼出海,https://hls.cntv.kcdnvip.com/asp/hls/1200/0303000a/3/default/7bdf23a599b44a7c8308684cbb789da0/1200.m3u8
鳄鱼王漂流记,https://hls.cntv.kcdnvip.com/asp/hls/1200/0303000a/3/default/8da4a365db75455cb0c15bd7681b57fc/1200.m3u8
黑猩猩的丛林法则,https://hls.cntv.kcdnvip.com/asp/hls/1200/0303000a/3/default/05ff5278105445e1a9d5651372faf47e/1200.m3u8
龙宫里的奇异动物,https://hls.cntv.kcdnvip.com/asp/hls/1200/0303000a/3/default/3528163c6b7d4a48b09b24027351ccf7/1200.m3u8

🚀4K视界,#genre#
苏州4K,http://liveshowbak2.kan0512.com/ksz-norecord/csztv4k_4k.m3u8

🏃少儿频道,#genre#
韩国EBS,http://ebsonairios.ebs.co.kr/ebsutablet500k/_definst_/tablet500k/chunklist_w1965791004.m3u8?zshijd
倒霉熊,https://newcntv.qcloudcdn.com/asp/hls/1200/0303000a/3/default/87f87ba569c147e3805f80e4844d2de9/1200.m3u8
反转星球,https://newcntv.qcloudcdn.com/asp/hls/1200/0303000a/3/default/3ccdecc7d6e341c1920ad4eac5d82f38/1200.m3u8
狮子王国,https://newcntv.qcloudcdn.com/asp/hls/850/0303000a/3/default/c2e7e767f3144bed959ef20b8b961fe5/850.m3u8
熊大熊二,https://newcntv.qcloudcdn.com/asp/hls/1200/0303000a/3/default/1733da751de64e6e910abda889d87a26/1200.m3u8
云朵妈妈,https://newcntv.qcloudcdn.com/asp/hls/1200/0303000a/3/default/d8ad434c6b08421a927557a4d98da65c/1200.m3u8
猪侠英雄,https://newcntv.qcloudcdn.com/asp/hls/1200/0303000a/3/default/0f03b08bc7b042358144617000fd2931/1200.m3u8

📍直播中国,#genre#
直播中国,https://gcalic.v.myalicdn.com/gc/wgw05_1/index.m3u8?contentid=2820180516001
直播中国精编直播,https://gcalic.v.myalicdn.com/gc/wgw05_1/index.m3u8
湖南张家界将军列队,https://gcalic.v.myalicdn.com/gc/zjjjjdl_1/index.m3u8
湖南张家界宝峰湖,https://gcalic.v.myalicdn.com/gc/zjjbfh_1/index.m3u8
湖南张家界御笔峰,https://gcalic.v.myalicdn.com/gc/zjjybf_1/index.m3u8
四川峨眉山云海日出,https://gcalic.v.myalicdn.com/gc/emsarm_1/index.m3u8
四川峨眉山普贤菩萨铜像,https://gcalic.v.myalicdn.com/gc/emspxps_1/index.m3u8
四川峨眉山远眺万佛顶,https://gcalic.v.myalicdn.com/gc/emswfs_1/index.m3u8
新疆天山(定海神针),https://gcalic.v.myalicdn.com/gc/xjtcdhsz_1/index.m3u8
新疆天山(马牙山),https://gcalic.v.myalicdn.com/gc/xjtcmys_1/index.m3u8
新疆天山(灯杆山),https://gcalic.v.myalicdn.com/gc/xjtcdgs_1/index.m3u8
湖南张家界天门山西线玻璃栈道,https://gcalic.v.myalicdn.com/gc/tms05_1/index.m3u8
八里沟风景区桃花湾瀑布,https://gcalic.v.myalicdn.com/gc/blg05_1/index.m3u8
八里沟风景区天界山玻璃栈道,https://gcalic.v.myalicdn.com/gc/blg03_1/index.m3u8
安徽池州九华山风景区九华山,https://gcalic.v.myalicdn.com/gc/jhs05_1/index.m3u8
安徽池州九华山风景区花台,https://gcalic.v.myalicdn.com/gc/jhs01_1/index.m3u8
江苏徐州云龙湖风景区云龙山观景台西,https://gcalic.v.myalicdn.com/gc/ylh04_1/index.m3u8
南京玄武湖公园,https://gcalic.v.myalicdn.com/gc/xwh01_1/index.m3u8
云南丽江蓝月谷,https://gcalic.v.myalicdn.com/gc/ylxs12_1/index.m3u8
江苏南京牛首山,https://gcalic.v.myalicdn.com/gc/nss01_1/index.m3u8
普陀山,https://gcalic.v.myalicdn.com/gc/pts01_1/index.m3u8
浙江舟山东极岛,https://gcalic.v.myalicdn.com/gc/djd01_1/index.m3u8
四川四姑娘山隆珠措,https://gcalic.v.myalicdn.com/gc/sgns02_1/index.m3u8
丽江古城大水车,https://gcalic.v.myalicdn.com/gc/ljgcdsc_1/index.m3u8
丽江古城万古楼遥望玉龙雪山,https://gcalic.v.myalicdn.com/gc/ljgcwglytylxs_1/index.m3u8
狮子山鸟瞰丽江古城,https://gcalic.v.myalicdn.com/gc/ljgcszsnkgc_1/index.m3u8
雪乡大石碑,https://gcalic.v.myalicdn.com/gc/mdjxxdsb_1/index.m3u8
乌镇西市河,https://gcalic.v.myalicdn.com/gc/zjwzbblh_1/index.m3u8
乌镇龙形田,https://gcalic.v.myalicdn.com/gc/zjwzlxt_1/index.m3u8
乌镇全景,https://gcalic.v.myalicdn.com/gc/zjwzblt_1/index.m3u8
凤凰古城东关门,https://gcalic.v.myalicdn.com/gc/fhgcdgm_1/index.m3u8
黄花城水长城01,https://gcalic.v.myalicdn.com/gc/wgw01_1/index.m3u8
黄花城水长城02,https://gcalic.v.myalicdn.com/gc/wgw02_1/index.m3u8
黄花城水长城03,https://gcalic.v.myalicdn.com/gc/wgw03_1/index.m3u8
鸣沙山,https://gcalic.v.myalicdn.com/gc/dhyyqst_1/index.m3u8
月牙泉,https://gcalic.v.myalicdn.com/gc/dhyyqsm_1/index.m3u8
五彩池,https://gcalic.v.myalicdn.com/gc/hlwcc_1/index.m3u8
黄龙,https://gcalic.v.myalicdn.com/gc/hlzycc_1/index.m3u8
望乡台,https://gcalic.v.myalicdn.com/gc/hlwxt_1/index.m3u8
泰山主峰,https://gcalic.v.myalicdn.com/gc/taishan01_1/index.m3u8
泰山玉皇顶,https://gcalic.v.myalicdn.com/gc/taishan06_1/index.m3u8
泰山十八盘,https://gcalic.v.myalicdn.com/gc/taishan05_1/index.m3u8
泰山南天门,https://gcalic.v.myalicdn.com/gc/hkts07_1/index.m3u8
泰山白云亭悬崖,https://gcalic.v.myalicdn.com/gc/hkts02_1/index.m3u8
泰山太平岭,https://gcalic.v.myalicdn.com/gc/hkts09_1/index.m3u8
泰山碧霞祠,https://gcalic.v.myalicdn.com/gc/hkts03_1/index.m3u8
黄山始信新道,https://gcalic.v.myalicdn.com/gc/hsyg_1/index.m3u8
黄山排云亭,https://gcalic.v.myalicdn.com/gc/hspyt_1/index.m3u8
黄山飞来石,https://gcalic.v.myalicdn.com/gc/hsptgy_1/index.m3u8
黄山,https://gcalic.v.myalicdn.com/gc/ahhs01_1/index.m3u8
陕西洋县国宝朱鹮03,https://gcalic.v.myalicdn.com/gc/zh03_1/index.m3u8
安徽黟县西递牌坊,https://gcalic.v.myalicdn.com/gc/yxxdpf_1/index.m3u8
安徽黟县芦村远眺,https://gcalic.v.myalicdn.com/gc/yxlcyt_1/index.m3u8
中央电视塔南,https://gcalic.v.myalicdn.com/gc/ztn_1/index.m3u8
恒山悬空寺全景,https://gcalic.v.myalicdn.com/gc/hsxksqj_1/index.m3u8
黄果树六角亭瀑布,https://gcalic.v.myalicdn.com/gc/hgsspzxdpb_1/index.m3u8
天涯石,https://gcalic.v.myalicdn.com/gc/tyhjtys_1/index.m3u8
六盘山红军长征景区,https://gcalic.v.myalicdn.com/gc/lpsgmjng01_1/index.m3u8
贵州省兴义市万峰林,https://gcalic.v.myalicdn.com/gc/xywfl_1/index.m3u8
云南大理崇圣寺三塔中景,https://gcalic.v.myalicdn.com/gc/dlst03_1/index.m3u8
云南大理崇圣寺三塔远景,https://gcalic.v.myalicdn.com/gc/dlst01_1/index.m3u8
广西桂林漓江景区,https://gcalic.v.myalicdn.com/gc/gllj01_1/index.m3u8
张掖七彩丹霞,https://gcalic.v.myalicdn.com/gc/zyqcdx01_1/index.m3u8
都江堰鱼嘴,https://gcalic.v.myalicdn.com/gc/djyqyl1_1/index.m3u8
乐山大佛全景,https://gcalic.v.myalicdn.com/gc/lsdfgfl_1/index.m3u8

🗽看世界,#genre#
CGTN法语,https://livefr.cgtn.com/1000f/prog_index.m3u8?zshijd
CGTN俄语,https://liveru.cgtn.com/1000r/prog_index.m3u8?zshijd
CGTN西语,https://livees.cgtn.com/1000e/prog_index.m3u8?zshijd
CGTN纪录,https://news.cgtn.com/resource/live/document/cgtn-doc.m3u8?zshijd
CGTN法语,https://news.cgtn.com/resource/live/french/cgtn-f.m3u8?zshijd
CGTN西语,https://news.cgtn.com/resource/live/espanol/cgtn-e.m3u8?zshijd
CGTN Documentary,https://livedoc.cgtn.com/500d/prog_index.m3u8?zshijd
CGTN Русский,http://liveru.cgtn.com/1000r/prog_index.m3u8?zshijd
CGTN阿拉伯语,http://livear.cgtn.com/1000a/prog_index.m3u8?zshijd
CGTN拉丁美洲,http://livees.cgtn.com/1000e/prog_index.m3u8?zshijd
CGTN美国,http://live.cgtn.com/1000/prog_index.m3u8?zshijd
CGTN(Opt_1),http://live.cgtn.com/500/prog_index.m3u8?zshijd
俄罗斯GITV,http://hls-igi.cdnvideo.ru/igi/igi_hq/playlist.m3u8?zshijd
韩国EBS第一频道,http://ebsonairios.ebs.co.kr/groundwavetablet500k/tablet500k/playlist.m3u8?zshijd
韩国EBS第二频道,http://ebsonairios.ebs.co.kr/ebs2tablet500k/tablet500k/ebs2tablet500k.index.m3u8?zshijd
韩国EBS_E频道,http://ebsonairios.ebs.co.kr/plus3tablet500k/tablet500k/plus3tablet500k.index.m3u8?zshijd
韩国BBS佛教广播,http://bbstv.clouducs.com:1935/bbstv-live/livestream/chunklist_w1403706733.m3u8?zshijd
韩国职业广播,http://live.worktv.or.kr:1935/live/wowtvlive1.sdp/playlist.m3u8?zshijd
ANTV,http://antvlive.ab5c6921.cdnviet.com/antv/chunklist.m3u8?zshijd
f时尚,http://lb.streaming.sk/fashiontv/stream/chunklist.m3u8?zshijd
f时尚,http://lb.streaming.sk/fashiontv/stream/chunklist_w1702070444.m3u8?zshijd

🎎日本频道,#genre#
日本购物1,http://stream1.shopch.jp/HLS/out1/prog_index.m3u8
日本购物2,http://stream1.shopch.jp/HLS/out2/prog_index.m3u8
日本购物3,http://stream1.shopch.jp/HLS/out3/prog_index.m3u8
日本购物4,http://stream1.shopch.jp/HLS/out4/prog_index.m3u8

🇰🇷韩国频道,#genre#
TJB 대전방송 (SBS 大田),http://1.245.74.5:1935/live/tv/.m3u8
KBS World,https://kbsworld-ott.akamaized.net:443/hls/live/2002341/kbsworld/01.m3u8
MBC,http://123.254.72.24:1935/tvlive/livestream2/playlist.m3u8
TBS Seoul,https://cdntv.tbs.seoul.kr/tbs/tbs_tv_web.smil/playlist.m3u8
KBS-1,http://ye23.vip/z7z8/2021/kbs2020.php?id=1
KBS-2,http://ye23.vip/z7z8/2021/kbs2020.php?id=2
KBS-WORLD,http://ye23.vip/z7z8/2021/kbs2020.php?id=3

怀旧剧场,#genre#
地雷战,http://hls.cntv.myalicdn.com/asp/hls/850/0303000a/3/default/a90c788a458e40508615d711b8aae1af/850.m3u8
地道战,http://hls.cntv.myalicdn.com/asp/hls/850/0303000a/3/default/312e39c68cc441feb79d1c2d7e16cbbd/850.m3u8
跟踪追击,http://hls.cntv.myalicdn.com/asp/hls/850/0303000a/3/default/059096230b4e46c0b5d4929ff98435d0/850.m3u8
红牡丹,http://hls.cntv.kcdnvip.com/asp/hls/850/0303000a/3/default/921b8081b58b4c2f81fb233b6c8e89ac/850.m3u8
侦察兵,http://hls.cntv.myalicdn.com/asp/hls/850/0303000a/3/default/3e4727a0fca34aa8b9774472a4908eaf/850.m3u8
三毛流浪记,http://hls.cntv.kcdnvip.com/asp/hls/850/0303000a/3/default/b9ce94c233b043bebe30340f09868ed1/850.m3u8
五朵金花,http://hls.cntv.myalicdn.com/asp/hls/850/0303000a/3/default/ae639196cf3949368c1b05776bb1d4fa/850.m3u8
洪湖赤卫队,http://hls.cntv.myalicdn.com/asp/hls/850/0303000a/3/default/2a58afdece3342eaac927648a2cccabd/850.m3u8
狼牙山五壮士,http://hls.cntv.myalicdn.com/asp/hls/850/0303000a/3/default/71c649af833c43a9b61e4f5c913bbd6b/850.m3u8
战上海,http://hls.cntv.kcdnvip.com/asp/hls/850/0303000a/3/default/e84b188d1bf7484fb4907d99827cbd45/850.m3u8
铁道游击队,http://hls.cntv.kcdnvip.com/asp/hls/850/0303000a/3/default/46d8664dacad4dbb9c790256688048dc/850.m3u8
红孩子,http://hls.cntv.kcdnvip.com/asp/hls/850/0303000a/3/default/bf55b84744d64eeaaedc5ea603855597/850.m3u8
宝葫芦的秘密,http://hls.cntv.kcdnvip.com/asp/hls/850/0303000a/3/default/866474add7224067877bed430d9380ab/850.m3u8
董存瑞,http://hls.cntv.kcdnvip.com/asp/hls/850/0303000a/3/default/b657281ba44a4b279f55ec860c12543b/850.m3u8
地下尖兵,http://hls.cntv.kcdnvip.com/asp/hls/850/0303000a/3/default/188d5706e5774f06850e06e4f181c4bd/850.m3u8
三毛从军记,http://hls.cntv.myalicdn.com/asp/hls/850/0303000a/3/default/919a08437d44499b87b7b4903f2b2ae6/850.m3u8
小兵张嘎,http://hls.cntv.kcdnvip.com/asp/hls/850/0303000a/3/default/d8c05f3ca36d48e6b1997b523e885c5c/850.m3u8
闪闪的红星,http://hls.cntv.myalicdn.com/asp/hls/850/0303000a/3/default/b90fcf1a5425479baf3a045282a1f263/850.m3u8
花儿朵朵,http://hls.cntv.myalicdn.com/asp/hls/850/0303000a/3/default/53a44d8649024b58b69f4468b922b8f0/850.m3u8
上甘岭,http://hls.cntv.kcdnvip.com/asp/hls/850/0303000a/3/default/c91f7aae9b8b4c578a7d9ecdf94b9dca/850.m3u8
平原游击队,http://hls.cntv.kcdnvip.com/asp/hls/850/0303000a/3/default/180ef18dec9a4edeb9d2b520d57cfc7f/850.m3u8
神秘的旅伴,http://hls.cntv.myalicdn.com/asp/hls/850/0303000a/3/default/ef95b9f13e2c47b882b67ef52139786a/850.m3u8
前哨,http://hls.cntv.kcdnvip.com/asp/hls/850/0303000a/3/default/1e9c4ffe4002492484c0f50235299759/850.m3u8
刘三姐,http://hls.cntv.kcdnvip.com/asp/hls/850/0303000a/3/default/680e102dc8614632862cf49a236def6e/850.m3u8
赛虎,http://hls.cntv.myalicdn.com/asp/hls/850/0303000a/3/default/34505162ca0848af9e23d33ed4018088/850.m3u8
犬王,http://hls.cntv.kcdnvip.com/asp/hls/850/0303000a/3/default/08d97be6d296434098297a505e2f05b5/850.m3u8
举起手来-追击阿多丸,http://hls.cntv.kcdnvip.com/asp/hls/850/0303000a/3/default/a1093561ad0a4071b68eeae884de01e7/850.m3u8
鸡毛信,http://hls.cntv.myalicdn.com/asp/hls/850/0303000a/3/default/41fcf9fefcf247c78e2d64c7af5d6edd/850.m3u8
马兰花,http://hls.cntv.kcdnvip.com/asp/hls/850/0303000a/3/default/c89d105b9661464bb8c5c5f46977f6c4/850.m3u8
南征北战,http://hls.cntv.myalicdn.com/asp/hls/850/0303000a/3/default/9557e1bfd91b4319975dfeffcc44d6b7/850.m3u8
羊城暗哨,http://hls.cntv.myalicdn.com/asp/hls/850/0303000a/3/default/215e7a6713884bcab8cc461e245531af/850.m3u8
冰山上的来客,http://hls.cntv.kcdnvip.com/asp/hls/850/0303000a/3/default/c86d45b176d642738dabf9da7361653b/850.m3u8
51号兵站,http://hls.cntv.myalicdn.com/asp/hls/850/0303000a/3/default/fa6557276d644b5ea399956a6bf94e59/850.m3u8
红日,http://hls.cntv.kcdnvip.com/asp/hls/850/0303000a/3/default/f2ee6e22cd894be1bc8c90b19f47ae2e/850.m3u8
战火中的青春,http://hls.cntv.kcdnvip.com/asp/hls/850/0303000a/3/default/be0d797e3b494f5fa1cb6d48d29643f3/850.m3u8
英雄虎胆,http://hls.cntv.kcdnvip.com/asp/hls/850/0303000a/3/default/b7fcd0d4ebb045fe8e653ee71b4ef8fc/850.m3u8
突破乌江,http://hls.cntv.myalicdn.com/asp/hls/850/0303000a/3/default/bf8ccfff8bc949a6a2ed6bcda45eb4e2/850.m3u8
三进山城,http://hls.cntv.kcdnvip.com/asp/hls/850/0303000a/3/default/ee157540ff2540ada0250edf3f6a3e0a/850.m3u8
苦菜花,http://hls.cntv.kcdnvip.com/asp/hls/850/0303000a/3/default/ec47d310d888464f8446af5e6e04ded8/850.m3u8
智取华山,http://hls.cntv.kcdnvip.com/asp/hls/850/0303000a/3/default/ef243e3fa20544df9cc24b72ace8efa0/850.m3u8
渡江侦察记,http://hls.cntv.kcdnvip.com/asp/hls/850/0303000a/3/default/d708e9c64aa34519af5490a793756c38/850.m3u8
奇袭,http://hls.cntv.kcdnvip.com/asp/hls/850/0303000a/3/default/ac8b28fb66104aa7a5e3cd5a10ea986b/850.m3u8
小花,http://hls.cntv.kcdnvip.com/asp/hls/850/0303000a/3/default/f97fb71bff5947ddaf905cc121c42ee4/850.m3u8
少林寺,http://hls.cntv.kcdnvip.com/asp/hls/850/0303000a/3/default/8af9ff377238407e927e597a1af47788/850.m3u8
大气层消失,http://hls.cntv.kcdnvip.com/asp/hls/850/0303000a/3/default/45122e56521f49b68020e3e66bc28ce8/850.m3u8
霹雳贝贝,http://hls.cntv.kcdnvip.com/asp/hls/850/0303000a/3/default/7accc94d5590415284af5db904e4be5a/850.m3u8
泉水叮咚,http://hls.cntv.kcdnvip.com/asp/hls/850/0303000a/3/default/8b039f6988a04ca8b086d35031a77204/850.m3u8
柳堡的故事,http://hls.cntv.myalicdn.com/asp/hls/850/0303000a/3/default/706b979b8a934aaab677a11c410bb119/850.m3u8
李双双,http://hls.cntv.myalicdn.com/asp/hls/850/0303000a/3/default/bac928d747984ed3bd17550879522f89/850.m3u8
大闹天宫,http://hls.cntv.myalicdn.com/asp/hls/850/0303000a/3/default/a57c9e5e1696486e97d229a3ddb13749/850.m3u8
柳毅传书,http://hls.cntv.kcdnvip.com/asp/hls/2000/0303000a/3/default/2ee71b96a3574889829e17d70b3f3c02/2000.m3u8
卷席筒,http://hls.cntv.kcdnvip.com/asp/hls/850/0303000a/3/default/8bebd13583e341e1b9d9e1180d36aaaa/850.m3u8
铡刀下的红梅,http://hls.cntv.myalicdn.com/asp/hls/850/0303000a/3/default/6f0817bfbedd42c682d9152abd5402a3/850.m3u8
墙头马上,http://hls.cntv.kcdnvip.com/asp/hls/850/0303000a/3/default/c45285c6b2ac46a58d49c9351b18e369/850.m3u8
花为媒,http://hls.cntv.kcdnvip.com/asp/hls/2000/0303000a/3/default/48da40a19746409997717371a80fd9e6/2000.m3u8
梁山伯与祝英台,http://hls.cntv.kcdnvip.com/asp/hls/850/0303000a/3/default/427eb50cc6844d47bcd35d2fac737a0a/850.m3u8
碧玉簪,http://hls.cntv.myalicdn.com/asp/hls/850/0303000a/3/default/9e90b1a2872b476b8a4f9882f9b63cde/850.m3u8
野猪林,http://hls.cntv.kcdnvip.com/asp/hls/850/0303000a/3/default/d2ddcbd8cdba4473a541687e683c1aca/850.m3u8
杜鹃山01,http://hls.cntv.myalicdn.com/asp/hls/850/0303000a/3/default/f468a89e0e394a718474523afe37c702/850.m3u8
杜鹃山02,http://hls.cntv.kcdnvip.com/asp/hls/850/0303000a/3/default/5f76957927c5421e8bd75d0f53c95e4a/850.m3u8
沙家浜,http://hls.cntv.kcdnvip.com/asp/hls/850/0303000a/3/default/6241c3f25a9a4dda9b05b9ba185500e0/850.m3u8
红楼梦01,http://hls.cntv.myalicdn.com/asp/hls/2000/0303000a/3/default/f66e935661b44ff6b80a290537d5d204/2000.m3u8
红楼梦02,http://hls.cntv.myalicdn.com/asp/hls/2000/0303000a/3/default/10470613ead24f5cb435137b5f39ab98/2000.m3u8
追鱼,http://hls.cntv.myalicdn.com/asp/hls/2000/0303000a/3/default/3515e586d18743be99eb6cc2004cb995/2000.m3u8
穆桂英大战洪州,http://hls.cntv.kcdnvip.com/asp/hls/2000/0303000a/3/default/aaa5a373d97a47d1bc95b1418b672b33/2000.m3u8
秦香莲,http://hls.cntv.myalicdn.com/asp/hls/2000/0303000a/3/default/f8daefadadef41989225543875268a70/2000.m3u8
王老虎抢亲,http://hls.cntv.kcdnvip.com/asp/hls/850/0303000a/3/default/3b6ae81ae49f4c72b0c977023565c762/850.m3u8
天仙配,http://hls.cntv.myalicdn.com/asp/hls/850/0303000a/3/default/1cd056751daf430a943e63e6428c40d7/850.m3u8
李二嫂改嫁01,http://hls.cntv.kcdnvip.com/asp/hls/850/0303000a/3/default/90846f6758524d78997aad89df8c37e0/850.m3u8
李二嫂改嫁02,http://hls.cntv.kcdnvip.com/asp/hls/850/0303000a/3/default/47a9c8216d344c2dd45f11949dbbecb5/850.m3u8
林海雪原,http://hls.cntv.kcdnvip.com/asp/hls/850/0303000a/3/default/5023f1dcc73b4090962ee31e017fb8e3/850.m3u8
孙悟空三打白骨精,http://hls.cntv.kcdnvip.com/asp/hls/850/0303000a/3/default/1e34b7a2f93d4efeaf7a583409b270cc/850.m3u8
巴黎圣母院,http://hls.cntv.kcdnvip.com/asp/hls/850/0303000a/3/default/dd86918aafb042c5b51584ffcf5b0e00/850.m3u8
罗密欧与朱丽叶,http://hls.cntv.myalicdn.com/asp/hls/850/0303000a/3/default/95193e30bd454e77bc59a140f4e32ad2/850.m3u8
魂断蓝桥,http://hls.cntv.kcdnvip.com/asp/hls/850/0303000a/3/default/7fc704c5b2e04e65bab92b3986883ab3/850.m3u8
茜茜公主,http://hls.cntv.kcdnvip.com/asp/hls/850/0303000a/3/default/ffa8a73877194632b0278898f297d07b/850.m3u8
出水芙蓉,http://hls.cntv.kcdnvip.com/asp/hls/850/0303000a/3/default/28f9967b04984830b3a1f6fb27561000/850.m3u8
桂河大桥,http://hls.cntv.kcdnvip.com/asp/hls/850/0303000a/3/default/b125a3edccb34637b336cb867e8a5d5d/850.m3u8
绍兴影视,http://live.shaoxing.com.cn/video/s10001-sxtv3/index.m3u8
新昌影视,http://l.cztvcloud.com/channels/lantian/SXxinchang2/720p.m3u8
石河子影视,http://124.88.144.73:1935/live/jjsh/HasBahCa.m3u8
烟台影视,http://live.yantaitv.cn/live/e9f1d9045d474c31884d13fa4ffbbd16/a4a9b3704d854756907845107cc56129-1.m3u8
双滦电影,https://jwcdnqx.hebyun.com.cn/live/slys/1500k/tzwj_video.m3u8
万州影视,http://wanzhoulive.cbg.cn:8017/d4ceB1a/1000/live.m3u8
万州影视,http://123.146.162.24:8017/d4ceB1a/1000/live.m3u8
吉林影视,http://stream1.jlntv.cn/yspd/sd/live.m3u8
烟台影视,http://live.yantaitv.cn/live/e9f1d9045d474c31884d13fa4ffbbd16/a4a9b3704d854756907845107cc56129.m3u8
菏泽影视,http://live.hznet.tv:1935/live/live3/500K/tzwj_video.m3u8
吉林影视,http://stream1.jlntv.cn/yspd/sd/live.m3u8?_upt=f6b685651648171016
美丽中国说,http://hls.cntv.myhwcdn.cn/asp/hls/4000/0303000a/3/default/8cdd688b04e4495ba1635e218419d6f9/4000.m3u8
中国气象,http://hls.weathertv.cn/tslslive/qCFIfHB/hls/live_sd.m3u8
CGTN Arabic,http://livear.cgtn.com/1000a/prog_index.m3u8
CGTN Español,http://livees.cgtn.com/500e/prog_index.m3u8
CGTN France,http://livefr.cgtn.com/1000f/prog_index.m3u8

地方综合,#genre#
绍兴新闻综合,http://live.shaoxing.com.cn/video/s10001-sxhb/index.m3u8?zzhed
绍兴新闻综合,http://live.shaoxing.com.cn/video/s10001-sxtv1/index.m3u8?zzhed
绍兴文化影院,http://live.shaoxing.com.cn/video/s10001-sxtv3/index.m3u8?zzhed
武义新闻综合,http://l.cztvcloud.com/channels/lantian/SXwuyi1/720p.m3u8?zzhed
平湖新闻综合,http://l.cztvcloud.com/channels/lantian/SXpinghu1/720p.m3u8?zzhed
平湖民生休闲,http://l.cztvcloud.com/channels/lantian/SXpinghu2/720p.m3u8?zzhed
萧山新闻综合,http://l.cztvcloud.com/channels/lantian/SXxiaoshan1/720p.m3u8?zzhed
萧山生活频道,http://l.cztvcloud.com/channels/lantian/SXxiaoshan2/720p.m3u8?zzhed
余杭综合频道,http://l.cztvcloud.com/channels/lantian/SXyuhang1/720p.m3u8?zzhed
余杭未来E频道,http://l.cztvcloud.com/channels/lantian/SXyuhang3/720p.m3u8?zzhed
余姚新闻综合,http://l.cztvcloud.com/channels/lantian/SXyuyao1/720p.m3u8?zzhed
余姚姚江文化,http://l.cztvcloud.com/channels/lantian/SXyuyao3/720p.m3u8?zzhed
嵊州新闻综合,http://l.cztvcloud.com/channels/lantian/SXshengzhou1/720p.m3u8?zzhed
诸暨新闻综合,http://l.cztvcloud.com/channels/lantian/SXzhuji3/720p.m3u8?zzhed
上虞新闻综合,http://l.cztvcloud.com/channels/lantian/SXshangyu1/720p.m3u8?zzhed
上虞文化影院,http://l.cztvcloud.com/channels/lantian/SXshangyu2/720p.m3u8?zzhed
兰溪新闻综合,http://l.cztvcloud.com/channels/lantian/SXlanxi1/720p.m3u8?zzhed
淮安公共频道,http://live1.habctv.com/ggpdsl/sd/live.m3u8?zjiangsd
淮安影院娱乐,http://live1.habctv.com/ysylsl/sd/live.m3u8?zjiangsd
无锡新闻综合,http://stream.thmz.com/wxtv1/sd/live.m3u8?zjiangsd
无锡都市资讯,http://stream.thmz.com/wxtv3/sd/live.m3u8?zjiangsd
无锡生活,http://stream.thmz.com/wxtv4/sd/live.m3u8?zjiangsd
无锡经济,http://stream.thmz.com/wxtv5/sd/live.m3u8?zjiangsd
金湖新闻综合,http://jinhu-tv-hls.cm.jstv.com/jinhu-tv/jinhuzh.m3u8?zjiangsd
金坛新闻频道,http://jintan-tv-ori-hls.jstv.com/jintan-tv-ori/jintan_xw.m3u8?zjiangsd
海安新闻综合,http://haian-tv-hls.cm.jstv.com/haian-tv/haaxwzh.m3u8?zjiangsd
睢宁综合频道,http://suining-tv-hls.cm.jstv.com/suining-tv/suiningzh.m3u8?zjiangsd
沭阳综合频道,http://shuyang-tv-hls.cm.jstv.com/shuyang-tv/shuyangzh.m3u8?zjiangsd
泗阳综合频道,http://siyang-tv-hls.cm.jstv.com/siyang-tv/siyangzh.m3u8?zjiangsd
泗阳资讯频道,http://siyang-tv-hls.cm.jstv.com/siyang-tv/siyangzx.m3u8?zjiangsd
烟台新闻综合,http://live.yantaitv.cn/live/3e81a8879da44c5dadf3bd9c10468e1c/9b776d420ee4438199b7657c8eb88f07-1.m3u8?shandd
烟台公共,http://live.yantaitv.cn/live/e50f104a4ffe4a41b2217cbda534146f/d86092e69df94668b33390278b061700-1.m3u8?shandd
烟台经济科技,http://live.yantaitv.cn/live/27f84144e95a4652ae9e5c211b2a6b55/405f3e33ba384aa0a16014d0becd1261-1.m3u8?shandd
菏泽经济生活,http://live.hznet.tv:1935/live/live2/500K/tzwj_video.m3u8?shandd
枣庄新闻综合,http://stream.zztvzd.com/1/sd/live.m3u8?shandd
枣庄教育,http://stream.zztvzd.com/2/sd/live.m3u8?shandd
枣庄公共,http://stream.zztvzd.com/3/sd/live.m3u8?shandd
青州综合,http://sdqz.chinashadt.com:2036/live/stream:1.stream/playlist.m3u8?shandd
青州文化旅游,http://sdqz.chinashadt.com:2036/live/stream:3.stream/playlist.m3u8?shandd
凉山新闻综合,http://file.yizu.tv/nmip-media/channellive/channel106606/playlist.m3u8?zsicd
德阳新闻综合,http://scdytv.cn:1935/live/m_xwpd_livevideo/playlist.m3u8?zsicd
甘孜综合,http://tv.drs.ganzitv.com:8100/channellive/gztv.flv?zsicd
万源新闻综合,http://live.wanyuannews.com/wytv/hd/live.m3u8?zsicd
松潘新闻综合,http://live.spccmc.com:90/live/spxwzh.m3u8?zsicd
汶川新闻综合,http://live.iwcmt.cn:90/live/zhxw.m3u8?zsicd
利州综合,http://tvfile.lzgbdst.com/nmip-media/channellive/channel106876/playlist.m3u8?zsicd
利州综合,http://tv.drs.lzgbdst.com:8100/channellive/lztv2.flv?zsicd
泸县新闻综合,http://lxfile.lxxcb.cn/nmip-media/channellive/channel103799/playlist.m3u8?zsicd
固镇新闻,http://www.guzhenm.com:7001/hls/hd-live.m3u8?zanhd
灵璧综合,http://live.cms.anhuinews.com/video/s10003-lbtv/index.m3u8?zanhd
焦作综合频道,http://zhpull.dxhmt.cn/jiaozuo/b75a92c9503e47cf9e89f7ff247b65f2/playlist.m3u8?zhend
焦作公共频道,http://zhpull.dxhmt.cn/jiaozuo/29b65b69130c4ef1a3283cc7b913da05/playlist.m3u8?zhend
建宁综合频道,https://p2.weizan.cn/2144741973/075444991326676404/live.m3u8?zfud
漳浦综合,http://220.161.87.62:8090/hls/0/index.m3u8?zfud
河北农民,https://jwplay.hebyun.com.cn/live/hbnmtv/1500k/tzwj_video.m3u8?zhebd
鹿泉一套,https://jwcdnqx.hebyun.com.cn/live/luquanyi/1500k/tzwj_video.m3u8?zhebd
荆门新闻综合,http://stream.jmtv.com.cn/xwzh/sd/live.m3u8?zhubd
潜江综合,http://hbqjdb.chinashadt.com:2035/live/3.stream/playlist.m3u8
潜江乡村,http://hbqjdb.chinashadt.com:2035/live/4.stream/playlist.m3u8
江夏新闻综合,http://59.175.226.142:280/gb28181/xwzh.m3u8
钦州综合,http://stream.gxqzxw.com/qztv/zhhd/live.m3u8
钦州公共,http://stream.gxqzxw.com/qztv02/gghd/live.m3u8
贺州综合,http://zhz.gxhzxw.com:2935/live/HZXW-HD/playlist.m3u8
罗城综合,http://111.12.75.177:9100/lctvlive/lch.m3u8?zguangxd
崆峒综合,http://125.74.200.110:10080/hls/001/001_live.m3u8?gansu
文山州新闻综合,http://tvdrs.wsrtv.com.cn:8100/channellive/ch1.flv?zyund
文山州新闻综合,http://m3u8.channel.wsrtv.com.cn/cms/videos/nmip-media/channellive/channel7/playlist.m3u8?zyund
文山州公共,http://m3u8.channel.wsrtv.com.cn/cms/videos/nmip-media/channellive/channel8/playlist.m3u8?zyund
西双版纳综合,http://file.xsbnrtv.cn/vms/videos/nmip-media/channellive/channel1/playlist.m3u8?zyund
西双版纳公共,http://file.xsbnrtv.cn/vms/videos/nmip-media/channellive/channel3/playlist.m3u8?zyund
砚山电视台,http://m3u8.channel.wsrtv.com.cn/cms/videos/nmip-media/channellive/channel16/playlist.m3u8?zyund
麻栗坡电视台,http://tvdrs.wsrtv.com.cn:8100/channellive/mlptv.flv?zyund
宾川一套,http://live.bcrmtzx.com/tv01/sd/live.m3u8?zyund
运城公共频道,http://live.0359tv.com/lsdream/t667aTY/1000/live.m3u8?zshanxd
运城科技教育,http://live.0359tv.com/lsdream/p5eq48m/1000/live.m3u8?zshanxd
晋中新闻,http://jzlive.jztvnews.com:90/live/jzzh.m3u8?zshanxd
晋中公共,http://jzlive.jztvnews.com:90/live/jzgg.m3u8?zshanxd
长子综合,http://zzlive.zzc-media.com:8092/live/xwzh.m3u8?zshanxd
潞城新闻综合,http://59.48.42.6:62204/lucheng.m3u8?zshanxd
吉县新闻综合,http://jxlive.jxrmtzx.com:8091/live/xwzh.m3u8?zshanxd
高平综合,http://live.gprmt.cn/gpnews/hd/live.m3u8?zshanxd
江津新闻综合,http://222.179.155.21:1935/ch1.m3u8?zzhongqd
武隆综合频道,https://qxlmlive9.cbg.cn/applive/wltvzh/playlist.m3u8?zzhongqd
哈尔滨新闻综合,http://stream.hrbtv.net/xwzh/sd/live.m3u8?zheild
哈尔滨影,http://stream.hrbtv.net/yspd/sd/live.m3u8?zheild
哈尔滨生活,http://stream.hrbtv.net/shpd/sd/live.m3u8?zheild
哈尔滨娱乐,http://stream.hrbtv.net/ylpd/sd/live.m3u8?zheild
鄂托克旗电视台,http://110.19.181.138:10080/hls/F509Rh7GR/F509Rh7GR_live.m3u8?zneimd
吉木萨尔综合,http://218.31.201.189:9000/api/material/local/mnt/shiping1/prog_index.m3u8?zxinjd
兵团五师双河影,https://liveout.btzx.com.cn/62ds9e/6o77s4.m3u8?zxinjd
玛纳斯综合,http://218.84.127.245:1026/hls/main1/playlist.m3u8?zxinjd
贵南综合,http://livecdn.dmqhyadmin.com/hls/xjguinan.m3u8?zqinghd
吉林都市,http://stream1.jlntv.cn/dspd/sd/live.m3u8?zjild
吉林生活,http://stream1.jlntv.cn/shpd/sd/live.m3u8?zjild
吉林影院,http://stream1.jlntv.cn/yspd/sd/live.m3u8?zjild
吉林乡村,http://stream1.jlntv.cn/xcpd/sd/live.m3u8?zjild
吉林公共,http://stream1.jlntv.cn/ggpd/sd/live.m3u8?zjild
吉林7频道,http://stream1.jlntv.cn/fzpd/sd/live.m3u8?zjild
东北戏曲频道,http://stream1.jlntv.cn/dbxq/playlist.m3u8?_upt=b234e6c41620650518?zjild
延边-1,http://live.ybtvyun.com/video/s10016-af95004b6d1a/index.m3u8?zjild
延边-2,http://live.ybtvyun.com/video/s10006-04819ee234a7/index.m3u8?zjild
延边朝鲜语综合,http://live.ybtvyun.com/video/s10006-b571c289a478/index.m3u8?zjild
延边朝鲜语综合,http://live.ybtvyun.com/video/s10016-19a16c47eb99/index.m3u8?zjild
延边汉语综合,http://live.ybtvyun.com/video/s10016-7e5f23de35df/index.m3u8?zjild
白山公共,http://stream8.jlntv.cn/baishan2/playlist.m3u8?zjild
长白山电视台,http://stream8.jlntv.cn/cbstv/sd/live.m3u8?zjild
九台综合,http://stream10.jlntv.cn/jiutaitv/sd/live.m3u8?zjild
靖宇综合,http://stream8.jlntv.cn/jytv/sd/live.m3u8?zjild
敦化一套,http://stream8.jlntv.cn/dhtv/playlist.m3u8?zjild
珲春新闻综合,http://stream8.jlntv.cn/hctv/sd/live.m3u8?zjild
龙井综合,http://stream8.jlntv.cn/ljtv/sd/live.m3u8?zjild
桦甸综合,http://stream10.jlntv.cn/huadian/sd/live.m3u8?zjild
磐石综合,http://stream5.jlntv.cn/ps/sd/live.m3u8?zjild
舒兰新闻综合,http://stream8.jlntv.cn/shulan/sd/live.m3u8?zjild
东丰综合,http://stream5.jlntv.cn/df/sd/live.m3u8?zjild
双辽综合,http://stream5.jlntv.cn/sl/sd/live.m3u8?zjild
辉南新闻综合,http://stream5.jlntv.cn/hn/sd/live.m3u8?zjild
柳河综合,http://stream5.jlntv.cn/lh/sd/live.m3u8?zjild
通化县综合,http://stream5.jlntv.cn/thx/sd/live.m3u8?zjild
汪清综合,http://stream5.jlntv.cn/wq/sd/live.m3u8?zjild

🎸️NewTV,#genre#
超级电影,http://[2409:8087:1a01:df::7005]/ottrrs.hl.chinamobile.com/PLTV/88888888/224/3221225717/index.m3u8
超级电视剧,http://[2409:8087:1a01:df::7005]/ottrrs.hl.chinamobile.com/PLTV/88888888/224/3221225716/index.m3u8
超级体育,http://[2409:8087:1a01:df::7005]/ottrrs.hl.chinamobile.com/PLTV/88888888/224/3221225715/index.m3u8
超级综艺,http://[2409:8087:1a01:df::7005]/ottrrs.hl.chinamobile.com/PLTV/88888888/224/3221225714/index.m3u8
金牌综艺,http://[2409:8087:1a01:df::7005]/ottrrs.hl.chinamobile.com/PLTV/88888888/224/3221225666/index.m3u8
东北热剧,http://[2409:8087:1a01:df::7005]/ottrrs.hl.chinamobile.com/PLTV/88888888/224/3221225741/index.m3u8
精品萌宠,http://[2409:8087:1a01:df::7005]/ottrrs.hl.chinamobile.com/PLTV/88888888/224/3221226505/index.m3u8
哒啵赛事,http://[2409:8087:1a01:df::7005]/ottrrs.hl.chinamobile.com/PLTV/88888888/224/3221225675/index.m3u8
欢乐剧场,http://[2409:8087:1a01:df::7005]/ottrrs.hl.chinamobile.com/PLTV/88888888/224/3221225742/index.m3u8
黑莓动画,http://[2409:8087:1a01:df::7005]/ottrrs.hl.chinamobile.com/PLTV/88888888/224/3221225662/index.m3u8

💖爱奇艺,#genre#
爱奇艺-周末影院,https://sf1-ttcdn-tos.pstatp.com/obj/tos-cn-v-0000/c51103da90f442339e892f8711ab0998
